<svg id="Calque_1" data-name="Calque 1" xmlns="http://www.w3.org/2000/svg" viewBox="0 0 150 150">
  <defs>
    <style>
      .cls-1 {
        fill: #59c0cf;
      }

      .cls-2 {
        fill: #f2f7f7;
      }

      .cls-3 {
        fill: #3c4f7e;
      }

      .cls-4 {
        fill: #ffe676;
      }

      .cls-5 {
        fill: #f1f3ee;
      }

      .cls-6 {
        fill: #fff;
      }

      .cls-7 {
        fill: #1b355f;
      }

      .cls-8 {
        fill: #ec6624;
      }

      .cls-9 {
        fill: #d8ecf3;
      }
    </style>
  </defs>
  <title>Home_Fonctionnement</title>
  <g>
    <circle class="cls-1" cx="75.67" cy="77.18" r="50"/>
    <path class="cls-2" d="M27.92,92.25a49.85,49.85,0,0,0,95.44,0Z"/>
    <g>
      <path class="cls-3" d="M99.95,60H66.55a1.13,1.13,0,0,0-1.13,1.13v3.76h-6.8a1.3,1.3,0,0,0-1.29,1.29v.55a1.3,1.3,0,0,0,1.29,1.29h6.8v3.33H54.32A1.3,1.3,0,0,0,53,72.67v.55a1.3,1.3,0,0,0,1.29,1.29h11.1V77H49.76a1.3,1.3,0,0,0-1.29,1.29v.55a1.3,1.3,0,0,0,1.29,1.29H65.42v2.56a1.13,1.13,0,0,0,1.13,1.13h33.4c.62,0,1.13.68,1.13.06V61.16A1.13,1.13,0,0,0,99.95,60Z"/>
      <path class="cls-4" d="M102.2,84.3c-.62,0-1.13.47-1.13-.15V65.57a1.13,1.13,0,0,1,1.13-1.13h9.18a2.62,2.62,0,0,1,1.82.89l4.48,9.5a3.84,3.84,0,0,1,.69,2v6.47a1.12,1.12,0,0,1-1.13,1.12Z"/>
      <rect class="cls-5" x="63.16" y="82.83" width="57.32" height="4.1" rx="1.13" ry="1.13"/>
      <path class="cls-6" d="M103.71,74.88a1.13,1.13,0,0,1-1.13-1.13V67.59a1.13,1.13,0,0,1,1.13-1.13h6.71a1.87,1.87,0,0,1,1.58,1l2.74,6.34a.69.69,0,0,1-.68,1Z"/>
      <g>
        <path class="cls-7" d="M102,86.7a5.39,5.39,0,1,0,5.39-5.39A5.39,5.39,0,0,0,102,86.7Zm3.19,0a2.2,2.2,0,1,1,2.2,2.2A2.2,2.2,0,0,1,105.19,86.7Z"/>
        <path class="cls-7" d="M69.1,86.9a5.39,5.39,0,1,0,5.39-5.39A5.39,5.39,0,0,0,69.1,86.9Zm3.19,0a2.2,2.2,0,1,1,2.2,2.2A2.2,2.2,0,0,1,72.29,86.9Z"/>
        <circle class="cls-4" cx="107.39" cy="86.7" r="2.2"/>
        <circle class="cls-4" cx="74.49" cy="86.9" r="2.2"/>
      </g>
      <path class="cls-3" d="M103.26,77.48a.4.4,0,0,0,.4.4h2.2a.4.4,0,0,0,.4-.4h0a.4.4,0,0,0-.4-.4h-2.2a.4.4,0,0,0-.4.4Z"/>
      <path class="cls-8" d="M119.11,80.07c0,.91-.33,1.65-.73,1.65h0V78h0c.4,0,.73.74.73,1.65Z"/>
    </g>
    <path class="cls-6" d="M81,42.67a2.15,2.15,0,0,0-3.3-1.37,3.68,3.68,0,0,0-6.86,1.23,2.14,2.14,0,0,0-2.43,1.2,1.6,1.6,0,1,0-.7,3h12.4a2.14,2.14,0,0,0,.89-4.1Z"/>
    <path class="cls-9" d="M56.87,34.92l-.34,0a3.85,3.85,0,0,0-4.36-2,5.49,5.49,0,0,0-11,.08,3.85,3.85,0,0,0-5,3.65c0,.07,0,.14,0,.21h0a1.82,1.82,0,1,0,0,3.64H56.87a2.79,2.79,0,0,0,0-5.58Z"/>
    <path class="cls-9" d="M122.37,47l-.34,0a3.85,3.85,0,0,0-4.36-2,5.49,5.49,0,0,0-11,.08,3.85,3.85,0,0,0-5,3.65c0,.07,0,.14,0,.21h0a1.82,1.82,0,1,0,0,3.64h20.72a2.79,2.79,0,1,0,0-5.58Z"/>
    <path class="cls-9" d="M47.35,60.43h-.19a2.18,2.18,0,0,0-2.47-1.15,3.1,3.1,0,0,0-6.21,0,2.18,2.18,0,0,0-2.85,2.07s0,.08,0,.12h0a1,1,0,1,0,0,2.06H47.35a1.58,1.58,0,1,0,0-3.15Z"/>
    <path class="cls-6" d="M82.7,28.13A3.34,3.34,0,0,1,87.84,26a5.74,5.74,0,0,1,10.69,1.91,3.34,3.34,0,0,1,3.79,1.88,2.49,2.49,0,1,1,1.09,4.72H84.09a3.34,3.34,0,0,1-1.39-6.38Z"/>
    <g>
      <path class="cls-2" d="M79.32,72a6.59,6.59,0,0,0,.89.91,8.17,8.17,0,0,0,2.28,1.37,9.81,9.81,0,0,0,3.46.71,9.94,9.94,0,0,0,2.39-.22,8.1,8.1,0,0,0,4.39-2.42,8.11,8.11,0,0,0-4.26-2.64,10.12,10.12,0,0,0-5.76.14A7.82,7.82,0,0,0,79.32,72Z"/>
      <path class="cls-2" d="M77.05,71.9A6.77,6.77,0,0,0,76,74.09,7.73,7.73,0,0,0,79.32,72a7.73,7.73,0,0,0-3.22-2.3A6.77,6.77,0,0,0,77.05,71.9Z"/>
      <circle class="cls-2" cx="90.87" cy="71.92" r="0.2" transform="translate(16.71 160.97) rotate(-88.57)"/>
      <path class="cls-2" d="M82.7,69.8a10.12,10.12,0,0,1,5.76-.14A7.43,7.43,0,0,0,87.6,69c-.26-.16-.58-.45-.94-.64a6.37,6.37,0,0,0,0,.79,6.92,6.92,0,0,0-1.59-.32,1,1,0,0,1,.19.36,6,6,0,0,0-.74-.14c-.64,0-.12.31-.39.3s-.7,0-.84.09S83.07,69.54,82.7,69.8Z"/>
    </g>
  </g>
</svg>
