<svg xmlns="http://www.w3.org/2000/svg" xmlns:xlink="http://www.w3.org/1999/xlink" viewBox="0 0 200 200">
  <defs>
    <style>
      .cls-1 {
        fill: none;
      }

      .cls-2 {
        isolation: isolate;
      }

      .cls-3 {
        fill: #59c0cf;
      }

      .cls-4 {
        clip-path: url(#clip-path);
      }

      .cls-5 {
        fill: #f8fafb;
      }

      .cls-6, .cls-8 {
        fill: #9a9999;
        mix-blend-mode: multiply;
      }

      .cls-6 {
        opacity: 0.37;
      }

      .cls-11, .cls-7 {
        fill: #fff;
      }

      .cls-7 {
        opacity: 0.47;
      }

      .cls-8 {
        opacity: 0.2;
      }

      .cls-9 {
        fill: #3c4f7e;
      }

      .cls-10 {
        fill: #010101;
      }

      .cls-12 {
        fill: #be292e;
      }

      .cls-13 {
        fill: #676767;
      }

      .cls-14 {
        fill: #4e4d4d;
      }

      .cls-15 {
        fill: #a42328;
      }

      .cls-16 {
        fill: #86999e;
      }

      .cls-17 {
        fill: #ffe676;
      }

      .cls-18 {
        fill: #00764d;
      }

      .cls-19 {
        fill: #008f5e;
      }

      .cls-20 {
        fill: #76a836;
      }

      .cls-21 {
        fill: #8bbf42;
      }
    </style>
    <clipPath id="clip-path">
      <circle class="cls-1" cx="102.18" cy="116.29" r="74.79"/>
    </clipPath>
  </defs>
  <title>Home_Qualité</title>
  <g class="cls-2">
    <g id="Calque_1" data-name="Calque 1">
      <circle class="cls-3" cx="102.04" cy="116.01" r="75"/>
      <g class="cls-4">
        <path class="cls-5" d="M100.46,156.08l15.21-13.49a8,8,0,0,1,7.22-1.78l31.86,7.88a8,8,0,0,1,5.25,4.22l10,20.3a8,8,0,0,1-.2,7.45L160.07,198a8,8,0,0,1-7,4.07H114.45a8,8,0,0,1-7.71-5.9l-8.68-32A8,8,0,0,1,100.46,156.08Z"/>
      </g>
      <g>
        <path class="cls-6" d="M177.18,116.08c0,41.62-33.57,75.38-75,75.38s-75-33.76-75-75.38a75.22,75.22,0,0,1,9.56-36.83,60.09,60.09,0,0,1,32.52.94C83,85.06,93.5,91.56,108,92.37c19.39.81,28.27-8.12,45.24-13a49.76,49.76,0,0,1,13.51-1.57A75.15,75.15,0,0,1,177.18,116.08Z"/>
        <path class="cls-7" d="M169,81.88c-9.45-.26-19.65,3.35-27.89,6.43C128.59,93,116.48,98.48,103,99.29c-11.52.6-22.41-2-33.52-4.27-11.39-2.6-24.85-6.46-37.34-5.8a73.62,73.62,0,0,1,4.66-10,60.09,60.09,0,0,1,32.52.94C83,85.06,93.5,91.56,108,92.37c19.39.81,28.27-8.12,45.24-13a49.77,49.77,0,0,1,13.51-1.57C167.58,79.14,168.32,80.5,169,81.88Z"/>
        <path class="cls-8" d="M169.71,83.29c-7.09-.31-15.62,3.31-20.71,5.44-11.31,4.66-22,10.56-34.14,13-15.14,3.25-30.7,2-45.63-1.23a148.45,148.45,0,0,0-20.62-3.25C41.93,97,35.55,98.09,29.1,99a74.18,74.18,0,0,1,3-9.81C44.58,88.56,58,92.42,69.43,95c11.12,2.22,22,4.87,33.52,4.27,13.52-.81,25.64-6.3,38.18-11,8.24-3.08,18.44-6.69,27.89-6.43C169.26,82.35,169.49,82.82,169.71,83.29Z"/>
      </g>
      <g>
        <path class="cls-5" d="M168.68,117.6a6.33,6.33,0,0,1-.86.87,7.86,7.86,0,0,1-2.21,1.3,9.43,9.43,0,0,1-3.33.65,9.55,9.55,0,0,1-2.29-.24,7.79,7.79,0,0,1-4.2-2.37,7.8,7.8,0,0,1,4.12-2.51,9.73,9.73,0,0,1,5.54.19A7.52,7.52,0,0,1,168.68,117.6Z"/>
        <path class="cls-9" d="M170.87,117.57a6.51,6.51,0,0,1,1,2.12,7.43,7.43,0,0,1-3.18-2.08,7.44,7.44,0,0,1,3.11-2.19A6.51,6.51,0,0,1,170.87,117.57Z"/>
        <path class="cls-9" d="M160.62,117.74a4.79,4.79,0,0,1-.62,2.45,7.79,7.79,0,0,1-4.2-2.37,7.8,7.8,0,0,1,4.12-2.51A4.78,4.78,0,0,1,160.62,117.74Z"/>
        <g>
          <circle class="cls-10" cx="157.7" cy="117.57" r="0.62" transform="translate(-2.01 2.75) rotate(-0.99)"/>
          <circle class="cls-11" cx="157.53" cy="117.41" r="0.28" transform="matrix(1, -0.02, 0.02, 1, -1.84, 2.52)"/>
        </g>
        <path class="cls-9" d="M165.45,115.5a9.73,9.73,0,0,0-5.54-.19,7.15,7.15,0,0,1,.84-.6c.25-.15.56-.43.91-.61a6.13,6.13,0,0,1,0,.76,6.66,6.66,0,0,1,1.53-.3,1,1,0,0,0-.18.35,5.72,5.72,0,0,1,.71-.13c.62,0,.11.3.37.3s.68,0,.8.1S165.1,115.24,165.45,115.5Z"/>
        <path class="cls-9" d="M168.69,117.6c-.71-.11-6.89-.26-8.08-.19a3.77,3.77,0,0,0-.08-.53C166.53,116.78,168.69,117.6,168.69,117.6Z"/>
        <path class="cls-9" d="M167.68,119.49a14.74,14.74,0,0,0-2.09.31,7.86,7.86,0,0,0,2.21-1.3A4.59,4.59,0,0,1,167.68,119.49Z"/>
      </g>
      <g>
        <path class="cls-5" d="M157.92,125.09a6.33,6.33,0,0,1-.86.87,7.86,7.86,0,0,1-2.21,1.3,9.43,9.43,0,0,1-3.33.65,9.55,9.55,0,0,1-2.29-.24,7.79,7.79,0,0,1-4.2-2.37,7.8,7.8,0,0,1,4.12-2.51,9.73,9.73,0,0,1,5.54.19A7.52,7.52,0,0,1,157.92,125.09Z"/>
        <path class="cls-9" d="M160.1,125.06a6.51,6.51,0,0,1,1,2.12,7.43,7.43,0,0,1-3.18-2.08,7.44,7.44,0,0,1,3.11-2.19A6.51,6.51,0,0,1,160.1,125.06Z"/>
        <path class="cls-9" d="M149.85,125.23a4.79,4.79,0,0,1-.62,2.45,7.79,7.79,0,0,1-4.2-2.37,7.8,7.8,0,0,1,4.12-2.51A4.78,4.78,0,0,1,149.85,125.23Z"/>
        <g>
          <circle class="cls-10" cx="146.94" cy="125.06" r="0.62" transform="translate(-2.14 2.56) rotate(-0.99)"/>
          <circle class="cls-11" cx="146.76" cy="124.9" r="0.28" transform="translate(-1.96 2.35) rotate(-0.91)"/>
        </g>
        <path class="cls-9" d="M154.69,123a9.73,9.73,0,0,0-5.54-.19,7.15,7.15,0,0,1,.84-.6c.25-.15.56-.43.91-.61a6.13,6.13,0,0,1,0,.76,6.66,6.66,0,0,1,1.53-.3,1,1,0,0,0-.18.35,5.72,5.72,0,0,1,.71-.13c.62,0,.11.3.37.3s.68,0,.8.1S154.34,122.73,154.69,123Z"/>
        <path class="cls-9" d="M157.92,125.09c-.71-.11-6.89-.26-8.08-.19a3.77,3.77,0,0,0-.08-.53C155.76,124.27,157.92,125.09,157.92,125.09Z"/>
        <path class="cls-9" d="M156.91,127a14.74,14.74,0,0,0-2.09.31A7.86,7.86,0,0,0,157,126,4.59,4.59,0,0,1,156.91,127Z"/>
      </g>
      <g>
        <path class="cls-5" d="M170.15,130.85a4.9,4.9,0,0,1-.67.67,6.09,6.09,0,0,1-1.71,1,7.3,7.3,0,0,1-2.58.5,7.4,7.4,0,0,1-1.78-.18,6,6,0,0,1-3.25-1.83,6,6,0,0,1,3.19-1.94,7.54,7.54,0,0,1,4.29.15A5.82,5.82,0,0,1,170.15,130.85Z"/>
        <path class="cls-9" d="M171.84,130.82a5,5,0,0,1,.78,1.64,5.75,5.75,0,0,1-2.47-1.61,5.76,5.76,0,0,1,2.41-1.69A5,5,0,0,1,171.84,130.82Z"/>
        <path class="cls-9" d="M163.91,131a3.71,3.71,0,0,1-.48,1.9,6,6,0,0,1-3.25-1.83,6,6,0,0,1,3.19-1.94A3.7,3.7,0,0,1,163.91,131Z"/>
        <g>
          <circle class="cls-10" cx="161.65" cy="130.83" r="0.48" transform="translate(-2.24 2.82) rotate(-0.99)"/>
          <circle class="cls-11" cx="161.51" cy="130.7" r="0.22" transform="matrix(1, -0.02, 0.02, 1, -2.05, 2.58)"/>
        </g>
        <path class="cls-9" d="M167.65,129.22a7.54,7.54,0,0,0-4.29-.15,5.53,5.53,0,0,1,.65-.46c.19-.12.44-.33.7-.47a4.74,4.74,0,0,1,0,.59,5.15,5.15,0,0,1,1.18-.23.78.78,0,0,0-.14.27,4.43,4.43,0,0,1,.55-.1c.48,0,.09.23.29.23s.52,0,.62.08S167.38,129,167.65,129.22Z"/>
        <path class="cls-9" d="M170.15,130.85c-.55-.08-5.34-.2-6.26-.14a2.92,2.92,0,0,0-.06-.41C168.48,130.21,170.15,130.85,170.15,130.85Z"/>
        <path class="cls-9" d="M169.37,132.31a11.42,11.42,0,0,0-1.62.24,6.09,6.09,0,0,0,1.71-1A3.56,3.56,0,0,1,169.37,132.31Z"/>
      </g>
      <g>
        <g>
          <ellipse class="cls-12" cx="135.09" cy="145.14" rx="7.78" ry="3.96"/>
          <g>
            <circle class="cls-13" cx="133.08" cy="141.39" r="0.59"/>
            <circle class="cls-13" cx="137.1" cy="141.39" r="0.59"/>
          </g>
          <g>
            <g>
              <path class="cls-12" d="M136,145.17l-.65-.65-5.89,5.89a.46.46,0,0,0,0,.65h0a.46.46,0,0,0,.65,0Z"/>
              <path class="cls-12" d="M132.6,145.17l-.65-.65-5.89,5.89a.46.46,0,0,0,0,.65h0a.46.46,0,0,0,.65,0Z"/>
            </g>
            <g>
              <path class="cls-12" d="M134.18,145.17l.65-.65,5.89,5.89a.46.46,0,0,1,0,.65h0a.46.46,0,0,1-.65,0Z"/>
              <path class="cls-12" d="M137.58,145.17l.65-.65,5.89,5.89a.46.46,0,0,1,0,.65h0a.46.46,0,0,1-.65,0Z"/>
            </g>
          </g>
          <g>
            <path class="cls-12" d="M126.15,139.62l-2.47-2.77a.73.73,0,0,0-1.05-.05l0,0c-1.12,1.12-.46,3.58,1.46,5.5s4.39,2.57,5.5,1.46.46-3.58-1.46-5.5a8.25,8.25,0,0,0-1-.88.3.3,0,0,0-.46.3l.31,1.55A.44.44,0,0,1,126.15,139.62Z"/>
            <path class="cls-12" d="M144,139.62l2.47-2.77a.73.73,0,0,1,1.05-.05l0,0c1.12,1.12.46,3.58-1.46,5.5s-4.39,2.57-5.5,1.46-.46-3.58,1.46-5.5a8.25,8.25,0,0,1,1-.88.3.3,0,0,1,.46.3l-.31,1.55A.44.44,0,0,0,144,139.62Z"/>
          </g>
        </g>
        <g>
          <path class="cls-14" d="M137.1,142a.59.59,0,0,0,.59-.58h0a.59.59,0,1,0-.59.59Z"/>
          <path class="cls-15" d="M147.58,136.81l0,0a.73.73,0,0,0-1.05.05L144,139.62a.44.44,0,0,1-.77-.38l.31-1.55a.3.3,0,0,0-.46-.3,8.25,8.25,0,0,0-1,.88,6.35,6.35,0,0,0-2,3.83,11.22,11.22,0,0,0-2.39-.69.59.59,0,1,1-1.16-.16c-.47,0-.95-.07-1.44-.07h-.27v7.91h.27a14.61,14.61,0,0,0,2.77-.26l2.21,2.21a.46.46,0,0,0,.65,0h0a.46.46,0,0,0,0-.65l-1.81-1.81a9.71,9.71,0,0,0,1.52-.57l3,3a.46.46,0,0,0,.65,0h0a.46.46,0,0,0,0-.65l-2.85-2.85a3,3,0,0,0,1.6-2.41,2.15,2.15,0,0,0-.19-.87,6.72,6.72,0,0,0,3.44-2C148,140.4,148.7,137.93,147.58,136.81Z"/>
        </g>
      </g>
      <path class="cls-16" d="M154.8,62.93l-2.09-1.85,3.17,16.82a.86.86,0,1,0,1.68-.32Z"/>
      <g>
        <g>
          <path class="cls-5" d="M160,89.08a2.83,2.83,0,0,1-.11,4.13,3.56,3.56,0,0,1-4.66-.09c-1.27-1.09-1.93-3-.66-4.37,1.42-1.53,3.78-1,5.24.15.37.3.59.85.12,1.18a1.46,1.46,0,0,1-1.63-.13c-.57-.46-1.18-.71-1.75-.1a1.62,1.62,0,0,0,.24,2.27,2.25,2.25,0,0,0,.3.22c.16.05.13,0,.31,0a1.46,1.46,0,0,0,.75-.48,1.5,1.5,0,0,0-.05-2.1.67.67,0,0,1,.3-1.11,1.55,1.55,0,0,1,1.6.43Z"/>
          <g>
            <path class="cls-5" d="M137.69,109.27a6.68,6.68,0,0,0,4.6,2.64,9.19,9.19,0,0,0,2,.06,7.7,7.7,0,0,0,2.09-.47,8.3,8.3,0,0,0,2.33-1.35c.15-1,0-2.31.09-2.88,0-.15,0-.32.06-.47a8.29,8.29,0,0,1-3.16,3.06,9,9,0,0,1-1.21.48,5,5,0,0,1-2.22.23h0a3.9,3.9,0,0,1-1.9-.86A8.81,8.81,0,0,0,137.69,109.27Z"/>
            <path class="cls-5" d="M148.74,110.15a10.74,10.74,0,0,0,2.4-2.74s.06-.11.09-.15a51.57,51.57,0,0,0,6.38-13.65c.25-.93-2-1.54-2.26-.61s-.47,1.61-.75,2.39a49.55,49.55,0,0,1-3.37,7.25c-.69,1.27-1.42,2.8-2.34,4.16,0,.15,0,.32-.06.47C148.77,107.84,148.9,109.1,148.74,110.15Z"/>
            <path class="cls-5" d="M136.57,107.24a7.28,7.28,0,0,0,1.11,2,8.81,8.81,0,0,1,2.71.44,5.64,5.64,0,0,1-1.63-2.54,10.63,10.63,0,0,1-.57-4.16,12.94,12.94,0,0,0,1.24.75l.93.5a10.88,10.88,0,0,0,1.23.53h0c.47.19.87.27.73,0s-.28-.48-.4-.69a1.22,1.22,0,0,0-.15-.25,12.42,12.42,0,0,1-2.39-5.46c-.87-4.41-1.41-2.06-2.18-.59A12,12,0,0,0,136.57,107.24Z"/>
          </g>
        </g>
        <path class="cls-9" d="M154.91,75.37c.49,0,3.48-.43,3.46.65,0,.59-.29.88-.88,1.1-.37.14-1.12.57-1.52.47a2,2,0,0,1,1.31.59c.89.66.65,2.44.67,3.34,0,2.16-.24,4,.27,6.17.24,1,.56,3.19-1.05,2.81-.48-.11-.34-.65.14-.54.63.15-.3-4.64-.32-4.81-.24-2.26,1.43-6.4-1.8-7.19-.2,0-.47-.32-.23-.49a5.65,5.65,0,0,1,1.51-.68q1.17-1.35-.52-.9l-.79,0c-.38,0-.79-.55-.27-.57Z"/>
        <path class="cls-16" d="M156.48,76.8s.9-.29.81-.64-.19-.95-.19-.95l-.53-.14-.46-.05-.52,0-.24.06.24,1.32.35.32Z"/>
      </g>
      <g>
        <path class="cls-17" d="M25.7,105.31c6.09.41,17.9,2.39,17.9,11.49H31.29s.67-4.61-6.25-9.71A1,1,0,0,1,25.7,105.31Z"/>
        <path class="cls-17" d="M27.17,132.54c5-.34,14.77-2,14.77-9.49H31.79s.55,3.8-5.16,8A.82.82,0,0,0,27.17,132.54Z"/>
        <path class="cls-17" d="M25.44,118l-7.89-4.55a1.52,1.52,0,0,0-2.29,1.32V115a1.61,1.61,0,0,0,.37,1l.05.06a5.22,5.22,0,0,1,0,6.64l-.05.06a1.61,1.61,0,0,0-.37,1v.15a1.52,1.52,0,0,0,2.29,1.32l7.89-4.55A1.52,1.52,0,0,0,25.44,118Z"/>
        <g>
          <path class="cls-9" d="M43.8,119.58a10.37,10.37,0,0,1,1.59-5.71c-10.53-6-19.18,1.25-22,4.4a2,2,0,0,0,0,2.62,18.75,18.75,0,0,0,22,4.36A10.39,10.39,0,0,1,43.8,119.58Z"/>
          <path class="cls-11" d="M51.34,119.58c0-1.76-4.36-4.77-5.47-5.44l-.48-.27a11,11,0,0,0,0,11.39l.5-.23C47,124.47,51.34,121.44,51.34,119.58Z"/>
        </g>
        <g>
          <path class="cls-11" d="M41,124.57l.47-12.37a15.89,15.89,0,0,0-1.62-.38l.48,12.75A.34.34,0,0,0,41,124.57Z"/>
          <path class="cls-11" d="M37.63,123.9l.46-12.28a15.07,15.07,0,0,0-1.6,0L37,123.9A.34.34,0,0,0,37.63,123.9Z"/>
          <path class="cls-11" d="M34.27,123.22l.43-11.44c-.52.09-1,.19-1.52.33l.42,11.11A.34.34,0,0,0,34.27,123.22Z"/>
          <path class="cls-11" d="M30.91,122.55l.37-9.82c-.48.19-.94.39-1.39.61l.35,9.2A.34.34,0,0,0,30.91,122.55Z"/>
          <path class="cls-11" d="M27.55,121.88l.28-7.37c-.42.27-.82.54-1.2.82l.25,6.55A.34.34,0,0,0,27.55,121.88Z"/>
        </g>
        <circle class="cls-9" cx="46.97" cy="117.04" r="0.69"/>
      </g>
      <path class="cls-18" d="M83.81,188.47c.31-.61.63-1.26,1-1.94.56-1.35,1.23-2.82,1.82-4.41a82.06,82.06,0,0,0,3.22-10.91,113.47,113.47,0,0,0,2.22-13.16,136.43,136.43,0,0,0,.88-14.76c-.07-2.57-.11-5.19-.26-7.83s-.42-5.2-.64-7.84l-.36-4-.26-3.85-.24-3.88c-.06-1.29-.19-2.6-.12-3.89l.17-7.78c.13-2.58.45-5.14.66-7.69s.71-5,1.05-7.54c.2-1.24.36-2.48.6-3.7l.81-3.6.8-3.55c.28-1.17.66-2.3,1-3.44.68-2.26,1.26-4.5,2.07-6.61a116.63,116.63,0,0,1,4.74-11.8c1.67-3.58,3.4-6.77,5-9.55s3.2-5.11,4.52-7,2.46-3.33,3.24-4.29S117,34,117,34a.55.55,0,0,0-.77-.78s-.5.44-1.43,1.33-2.21,2.22-3.79,4c-.79.89-1.62,1.9-2.54,3s-1.81,2.36-2.82,3.67c-1.94,2.67-4,5.77-6.12,9.28a121.15,121.15,0,0,0-6.1,11.71c-1.06,2.11-1.88,4.38-2.78,6.68-.43,1.16-.93,2.31-1.33,3.51L88.14,80,87,83.71c-.36,1.26-.64,2.54-1,3.83-.6,2.58-1.34,5.18-1.7,7.86s-.94,5.37-1.26,8.09l-.75,8.22c-.26,2.75-.16,5.51-.31,8.26l-.14,4.12-.07,3.9-.13,7.8c-.1,2.52-.1,5-.13,7.44l-.09,14.13c0,2.25-.06,4.42-.11,6.53s-.14,4.14-.2,6.09c-.16,3.91-.44,7.46-.73,10.62-.25,2.48-.56,4.7-.89,6.62Q81.58,187.9,83.81,188.47Z"/>
      <path class="cls-19" d="M52.07,102.44c.77,2.67,1.88,5.22,2.9,7.84l3,7.48,1.47,3.75q.6,1.8,1.15,3.62l1.12,3.59,1,3.71q1,3.69,1.79,7.34l1.71,7.16c1.19,4.68,2.38,9.22,3.57,13.53L73,172.71c1.38,5.21,2.62,9.89,3.69,13.78a77.52,77.52,0,0,0,7.44,2.28,106.73,106.73,0,0,0,1.34-17.66,119.49,119.49,0,0,0-.79-13.45,96.81,96.81,0,0,0-2.72-14.82,76.71,76.71,0,0,0-2.41-7.61c-.83-2.56-2-5.08-3-7.61-.55-1.27-1.07-2.54-1.65-3.81L73,120q-.93-1.92-1.81-3.86l-1.88-3.58-3.7-7.16c-1.15-2.27-2.41-4.51-3.34-6.86s-2.07-4.61-2.87-7-1.8-4.63-2.43-7S55.53,80,55,77.67s-1.12-4.52-1.49-6.73-.84-4.36-1.08-6.46l-.42-3.1-.27-3-.25-2.89-.13-2.77c-.11-1.8-.12-3.52-.12-5.13,0-3.23.13-6,.28-8.36s.38-4.14.54-5.37.3-1.88.3-1.88a.78.78,0,0,0-1.51-.41s-.23.63-.62,1.87-.9,3-1.45,5.36S47.7,44,47.23,47.29c-.24,1.65-.5,3.42-.66,5.29l-.29,2.88-.16,3L46,61.64v3.29c0,2.24.08,4.55.22,6.92s.38,4.82.67,7.31.74,5,1.17,7.6,1.1,5.16,1.7,7.8S51.26,99.79,52.07,102.44Z"/>
      <path class="cls-20" d="M55.38,168.14c.62,3,1.33,5.66,2.06,8.12A62.57,62.57,0,0,0,65,181.17c.12-3.8.24-8.56.38-14l.73-23.31c0-2.12.11-4.26.11-6.44s.06-4.39.16-6.61l.13-3.35.28-3.29q.13-1.65.31-3.31l.55-3.47,1.13-6.93c.37-2.41.83-4.79,1-7.19s.53-4.75.49-7.11.15-4.66,0-6.94-.15-4.5-.43-6.68-.41-4.29-.81-6.33-.66-4-1.12-5.92l-.62-2.79-.72-2.66-.7-2.54-.77-2.4c-.48-1.56-1-3-1.53-4.38-1-2.73-2-5-2.93-6.92S59,45.31,58.41,44.33s-.88-1.48-.88-1.48h0a.63.63,0,0,0-1.1.59,56.87,56.87,0,0,1,2.15,6c.58,1.94,1.27,4.31,1.9,7.05.32,1.37.66,2.83.92,4.38l.44,2.38.36,2.51.36,2.61.25,2.72c.21,1.84.28,3.75.34,5.72s.06,4,.05,6S63,87,62.9,89.09s-.45,4.26-.7,6.42-.7,4.32-1.08,6.5-1,4.34-1.5,6.51l-1.75,6.81-.9,3.41-.78,3.62-.8,3.61-.65,3.55c-.42,2.36-.87,4.71-1.08,7s-.49,4.64-.57,6.92a88,88,0,0,0,.49,13.09A108.11,108.11,0,0,0,55.38,168.14Z"/>
      <path class="cls-21" d="M131.69,74.1c-.1-1.57-.15-3.13-.3-4.67l-.57-4.58-.57-4.49c-.21-1.48-.54-2.93-.8-4.37-.56-2.88-1-5.7-1.81-8.38a143.4,143.4,0,0,0-4.59-14.95c-1.67-4.54-3.49-8.57-5.19-12.09-.9-1.74-1.7-3.38-2.52-4.86s-1.61-2.82-2.34-4c-1.48-2.38-2.71-4.2-3.58-5.43S108,4.42,108,4.42a.78.78,0,0,0-1.29.89s.41.69,1.08,2,1.62,3.22,2.72,5.72,2.3,5.59,3.55,9.16c.64,1.78,1.18,3.73,1.82,5.75s1.1,4.21,1.71,6.44A136.85,136.85,0,0,1,120.37,49c.44,2.6.6,5.32.85,8.08.1,1.38.28,2.77.33,4.18l.09,4.27.1,4.33c0,1.45-.12,2.92-.17,4.39-.19,2.94-.11,5.92-.53,8.9s-.56,6-1,9l-1.59,9c-.22,1.5-.68,3-1,4.44s-.77,2.94-1.17,4.4L115,114.32l-1.37,4.58c-.87,3-1.84,5.88-2.58,8.92s-1.46,6.06-2.09,9.05a138.52,138.52,0,0,0-2.17,17.39,126.52,126.52,0,0,0-.14,15.84,94.8,94.8,0,0,0,1.59,13.44c.36,2,.88,3.85,1.3,5.54.17.52.33,1,.48,1.51q3.33-.37,6.79-1.08c0-.4.05-.81.07-1.22.18-1.62.3-3.34.52-5.19.45-3.7,1-7.84,1.8-12.37.41-2.26.72-4.6,1.25-7s.88-4.94,1.42-7.53c1-5.16,2.16-10.62,3.12-16.29.53-2.81,1-5.68,1.45-8.61l1.49-9.08.73-4.53.71-4.85c.41-3.25,1.12-6.44,1.4-9.7l.9-9.76c.21-3.25.18-6.5.27-9.71S131.84,77.24,131.69,74.1Z"/>
      <g>
        <path class="cls-17" d="M85.85,111.63c6.72.46,19.75,2.64,19.75,12.69H92s.74-5.09-6.9-10.72A1.09,1.09,0,0,1,85.85,111.63Z"/>
        <path class="cls-17" d="M87.47,141.68c5.55-.38,16.3-2.17,16.3-10.47H92.57s.61,4.2-5.69,8.84A.9.9,0,0,0,87.47,141.68Z"/>
        <path class="cls-17" d="M85.56,125.68l-8.7-5a1.68,1.68,0,0,0-2.52,1.46v.17a1.77,1.77,0,0,0,.4,1.13l.06.07a5.77,5.77,0,0,1,0,7.33l-.06.07a1.77,1.77,0,0,0-.4,1.13v.17a1.68,1.68,0,0,0,2.52,1.46l8.7-5A1.68,1.68,0,0,0,85.56,125.68Z"/>
        <g>
          <path class="cls-9" d="M105.82,127.38a11.45,11.45,0,0,1,1.76-6.3c-11.62-6.58-21.17,1.37-24.33,4.86a2.18,2.18,0,0,0,0,2.9c3.16,3.48,12.32,10.33,24.3,4.81A11.46,11.46,0,0,1,105.82,127.38Z"/>
          <path class="cls-11" d="M114.15,127.38c0-1.94-4.81-5.27-6-6l-.53-.3a12.19,12.19,0,0,0,0,12.57l.55-.25C109.36,132.78,114.15,129.43,114.15,127.38Z"/>
        </g>
        <g>
          <path class="cls-17" d="M102.73,132.88l.51-13.65a17.54,17.54,0,0,0-1.79-.42l.53,14.07A.37.37,0,0,0,102.73,132.88Z"/>
          <path class="cls-17" d="M99,132.14l.51-13.56a16.63,16.63,0,0,0-1.76,0l.51,13.57A.37.37,0,0,0,99,132.14Z"/>
          <path class="cls-17" d="M95.31,131.4l.48-12.62c-.57.09-1.13.21-1.68.36l.46,12.26A.37.37,0,0,0,95.31,131.4Z"/>
          <path class="cls-17" d="M91.6,130.66,92,119.83c-.53.21-1,.43-1.53.67l.38,10.16A.37.37,0,0,0,91.6,130.66Z"/>
          <path class="cls-17" d="M87.89,129.92l.31-8.13c-.46.3-.9.6-1.32.91l.27,7.23A.37.37,0,0,0,87.89,129.92Z"/>
        </g>
        <circle class="cls-9" cx="109.33" cy="124.58" r="0.76"/>
      </g>
      <path class="cls-20" d="M74.68,185.74l2.52-7.59,7.47-22.1c.58-2,1.34-4,2-6.14s1.33-4.18,2.07-6.28l1.1-3.17L91,137.41q.61-1.54,1.26-3.08l1.53-3.16,3.09-6.3c1.06-2.2,2.19-4.34,3-6.6s1.88-4.4,2.53-6.66,1.5-4.42,2-6.64,1.17-4.35,1.53-6.51.86-4.23,1.07-6.3.53-4,.64-6l.22-2.85.09-2.75.07-2.63,0-2.52c0-1.63-.1-3.18-.19-4.63-.16-2.9-.48-5.42-.8-7.47s-.65-3.66-.88-4.75-.41-1.67-.41-1.67h0a.63.63,0,0,0-1.23.25,56.86,56.86,0,0,1,.31,6.36c0,2,0,4.49-.22,7.3-.09,1.41-.19,2.9-.39,4.46L104,77.65l-.39,2.5-.42,2.6-.55,2.68c-.34,1.82-.83,3.67-1.33,5.57s-1.09,3.82-1.7,5.78-1.36,3.92-2.1,5.91-1.66,3.95-2.53,5.94S93,112.56,92,114.54s-2.18,3.87-3.33,5.79l-3.65,6-1.85,3-1.8,3.23-1.82,3.23L77.94,139c-1.09,2.14-2.2,4.25-3.08,6.42s-1.82,4.3-2.55,6.45A88,88,0,0,0,69,164.55a108.16,108.16,0,0,0-1.63,11.6c-.19,2.14-.29,4.17-.35,6.09A79.36,79.36,0,0,0,74.68,185.74Z"/>
    </g>
  </g>
</svg>
