<svg id="Calque_1" data-name="Calque 1" xmlns="http://www.w3.org/2000/svg" xmlns:xlink="http://www.w3.org/1999/xlink" viewBox="0 0 200 200">
  <defs>
    <style>
      .cls-1 {
        fill: none;
      }

      .cls-2 {
        fill: #ededed;
      }

      .cls-3 {
        fill: #59c0cf;
      }

      .cls-4 {
        fill: #ead3cb;
      }

      .cls-5 {
        clip-path: url(#clip-path);
      }

      .cls-6 {
        fill: #f8ddce;
      }

      .cls-7 {
        fill: #ffe676;
      }

      .cls-8 {
        fill: #edd87d;
      }

      .cls-9 {
        fill: #3c4f7e;
      }

      .cls-10, .cls-13 {
        fill: #fff;
      }

      .cls-11 {
        fill: #1e4472;
      }

      .cls-12 {
        fill: #d8ecf3;
      }

      .cls-13 {
        fill-rule: evenodd;
      }
    </style>
    <clipPath id="clip-path">
      <circle class="cls-1" cx="96.65" cy="101.35" r="75"/>
    </clipPath>
  </defs>
  <title>Home_Qualité</title>
  <circle class="cls-2" cx="96.78" cy="101.09" r="75"/>
  <path class="cls-3" d="M23.19,115a75,75,0,0,0,147.37,0Z"/>
  <path class="cls-4" d="M82.62,77.82l-1.53.13-1.23-3.26,3-3.2,7.42-3.42,4.34-.23s.6,2,.83,2.91l-3.51,4.69-5.07.91Z"/>
  <polygon class="cls-4" points="103.93 122.88 102.72 119.31 114.36 120.19 120.78 120.02 127.65 121.62 130.13 127.89 125.67 128.32 112.66 124.69 103.93 122.88"/>
  <path class="cls-4" d="M80.81,113.26l2.83,1.51,1.36,4,10.7,6,6.26,4.39a20.48,20.48,0,0,1-1.92,2.47c-.2,0-9-2.68-9-2.68l-6.21-4.64-5.6-4.85-2.68-5.65,2.32-1.51Z"/>
  <g class="cls-5">
    <path class="cls-6" d="M141.17,137.51l-5.62-7.57s.39-1-1.06-4.79-5.29-5.46-8.25-5.85-7.63,1.73-9.85,1.56-7.8-4.68-10.08-4.73-4,2.51-3.79,3.56a6.81,6.81,0,0,0,1,2c5.63.66,11.31.24,17,.63,3.37.23,8.19.68,9.18,4.62a.5.5,0,0,1-1,.27c-1-4.18-7.53-3.92-10.85-4-5.14-.11-10.29.05-15.39-.65a13.06,13.06,0,0,1-2.52.06c-.95-.17-7.24-2.62-8.3-3s-6.74-4.34-8-5.07a8.31,8.31,0,0,0-.93-.48c-1.56-.08-4.61.24-3.91,2.07a6.6,6.6,0,0,0,2,2.49,41.94,41.94,0,0,0,4.14,3,93.92,93.92,0,0,0,15.17,8.16c.59.24.33,1.22-.27,1a91.32,91.32,0,0,1-17.35-9.57C80.87,120,78,118.27,77.75,116c-.19-1.8,1.42-2.61,3.11-2.87-2-1.57-7.38-5.8-8.47-5.8A2.69,2.69,0,0,0,69.72,110c0,1.59,3.43,5.6,5.85,7.77s5.4,7.41,7.07,8.3,15.82,10.47,19.49,11.58,17.82,2.78,21.27,4.23a4.24,4.24,0,0,1,2.78,4.68Z"/>
    <path class="cls-6" d="M95.45,70.74a1.88,1.88,0,0,0-.3-.91l-.07,0A48.71,48.71,0,0,0,89.2,72.8l-.91.48a4.37,4.37,0,0,1-1.13,1.38,1.73,1.73,0,0,1-1.79.28h0a5.84,5.84,0,0,1-.74.09c-1.19.11-2.36.25-3.54.44A11.48,11.48,0,0,0,82,77.89c2.47.26,6.58.58,7.9,0C91.82,77,95.31,71,95.45,70.74Z"/>
    <path class="cls-6" d="M73.75,61.38c-2.56,1-10.31,9.05-12.59,11.46s-4,4.25-5,4.57-7.3,1.07-7.3,1.07l4,16.55a47.88,47.88,0,0,1,5.14-1.46c1.1-.11,11.15,2.36,15.25,2.36S92.13,93.86,93.7,93.5s10.39-4.25,11.17-5,.52-3.79-.63-4.42-5.92-.11-7.43.7a10.53,10.53,0,0,1-6.44,1c-2.43-.43-5.51-.72-6.86-2.45a24,24,0,0,1-2.27-5.37,9.81,9.81,0,0,1-.91-2.64.35.35,0,0,1,.11-.32.3.3,0,0,1,.18-.1c1.17-.2,2.35-.36,3.54-.47.38,0,1,.05,1.26-.17l.4-.28c.64-.41,1.3-.79,2-1.15A.25.25,0,0,1,88,72.7l1.12-.6a49.68,49.68,0,0,1,5.82-2.89.31.31,0,0,1,.19,0h0c.29.14,2.06,1.11,3.06,1.6s2.68.84,3,1.17,3.93,5.05,5.89,5.67a2.79,2.79,0,0,0,3.56-2.38c-.11-1.16-5-6.09-5.91-7.25s-6-4.46-7.27-5.09S76.31,60.39,73.75,61.38Z"/>
    <circle class="cls-7" cx="107.19" cy="80.81" r="7.01"/>
    <circle class="cls-8" cx="107.19" cy="80.81" r="6.29"/>
    <circle class="cls-7" cx="107.19" cy="80.81" r="5.68"/>
    <path class="cls-6" d="M80.34,75.27a.35.35,0,0,1,.11-.32l0,0L79.92,74a1.22,1.22,0,0,1-.13-.28c-2.45-3.85-5.36-7.38-8-11.13A126.19,126.19,0,0,0,61.16,72.83c-2.28,2.4-4,4.25-5,4.57s-7.3,1.07-7.3,1.07l4,16.55a47.88,47.88,0,0,1,5.14-1.46c1.1-.11,11.15,2.36,15.25,2.36S92.13,93.86,93.7,93.5s10.39-4.25,11.17-5,.52-3.79-.63-4.42-5.92-.11-7.43.7a10.53,10.53,0,0,1-6.44,1c-2.43-.43-5.51-.72-6.86-2.45a24,24,0,0,1-2.27-5.37A9.81,9.81,0,0,1,80.34,75.27Z"/>
    <path class="cls-6" d="M141.17,137.51l-5.62-7.57s.39-1-1.06-4.79-5.29-5.46-8.25-5.85a9.48,9.48,0,0,0-2.81.16,1.12,1.12,0,0,1-.16.57,7.68,7.68,0,0,1-2,2.33c3.27.27,7.4.95,8.31,4.56a.5.5,0,0,1-1,.27c-1-4.18-7.53-3.92-10.85-4-5.14-.11-10.29.05-15.39-.65a13.06,13.06,0,0,1-2.52.06c-.95-.17-7.24-2.62-8.3-3s-6.74-4.34-8-5.07a8.31,8.31,0,0,0-.93-.48c-1.56-.08-4.61.24-3.91,2.07a6.6,6.6,0,0,0,2,2.49,41.94,41.94,0,0,0,4.14,3,93.92,93.92,0,0,0,15.17,8.16c.59.24.33,1.22-.27,1a91.32,91.32,0,0,1-17.35-9.57C80.87,120,78,118.27,77.75,116c-.19-1.8,1.42-2.61,3.11-2.87-2-1.57-7.38-5.8-8.47-5.8A2.69,2.69,0,0,0,69.72,110c0,1.59,3.43,5.6,5.85,7.77s5.4,7.41,7.07,8.3,15.82,10.47,19.49,11.58,17.82,2.78,21.27,4.23a4.24,4.24,0,0,1,2.78,4.68Z"/>
    <path class="cls-7" d="M120.14,147.2l15.12,25.54,37.79-4.2L140.18,128.2l-2.53,2.4-13.81,13.11h0l-2,1.86"/>
    <path class="cls-9" d="M56.56,78.14A1.41,1.41,0,0,0,55,76.88a1.36,1.36,0,0,0-.68.29,3.39,3.39,0,0,0-3.1-1.42c-1.47.15-3,.31-3.86.44L17.5,81.66l.07,30.12L53.79,97.54c1.73-.72,2.22-1.38,2.27-2.71v-.07a1.37,1.37,0,0,0,.85.21,1.41,1.41,0,0,0,1.25-1.54Z"/>
    <circle class="cls-7" cx="111.17" cy="117.2" r="7.01"/>
    <circle class="cls-8" cx="111.17" cy="117.2" r="6.29"/>
    <circle class="cls-7" cx="111.17" cy="117.2" r="5.68"/>
    <circle class="cls-7" cx="101.41" cy="112.62" r="7.01"/>
    <circle class="cls-8" cx="101.41" cy="112.62" r="6.29"/>
    <circle class="cls-7" cx="101.41" cy="112.62" r="5.68"/>
  </g>
  <polygon class="cls-10" points="123.88 153.51 144.96 134.09 143.22 131.95 122.42 151.08 123.88 153.51"/>
  <polygon class="cls-11" points="126.09 157.26 148.02 137.76 146.16 135.56 124.75 155 126.09 157.26"/>
  <polygon class="cls-11" points="121.52 149.54 141.99 130.43 140.19 128.22 120.12 147.2 121.52 149.54"/>
  <path class="cls-10" d="M94.67,44.1a3.26,3.26,0,0,0-5-2.08,5.6,5.6,0,0,0-10.44,1.87,3.26,3.26,0,0,0-3.7,1.83,2.43,2.43,0,1,0-1.06,4.61H93.31a3.26,3.26,0,0,0,1.36-6.23Z"/>
  <path class="cls-12" d="M56.42,54.57l-.41,0a4.61,4.61,0,0,0-5.23-2.43,6.59,6.59,0,0,0-13.17.1,4.61,4.61,0,0,0-6.05,4.39c0,.08,0,.17,0,.25h0a2.18,2.18,0,1,0,0,4.36H56.42a3.35,3.35,0,1,0,0-6.69Z"/>
  <path class="cls-12" d="M170.92,80.63l-.41,0a4.61,4.61,0,0,0-5.23-2.43,6.59,6.59,0,0,0-13.17.1,4.61,4.61,0,0,0-6.05,4.39c0,.08,0,.17,0,.25h0a2.18,2.18,0,1,0,0,4.36h24.86a3.35,3.35,0,0,0,0-6.69Z"/>
  <path class="cls-10" d="M151.91,41.16a5.2,5.2,0,0,0-8-3.31,8.92,8.92,0,0,0-16.62,3,5.19,5.19,0,0,0-5.89,2.92,3.86,3.86,0,1,0-1.69,7.34h30a5.19,5.19,0,0,0,2.16-9.92Z"/>
  <g>
    <path class="cls-13" d="M127.09,73a4,4,0,0,1,1.14-1.47,4.36,4.36,0,0,1,2.67-.88,4.49,4.49,0,0,1,1.75.21c.25.1.48.22.73.33l.29.15-.09.16a2.55,2.55,0,0,1-.44,0,3.43,3.43,0,0,0-2.47.69,11.62,11.62,0,0,0-1.3,1,5,5,0,0,0-1.49,2.32,1,1,0,0,1-.24-.15,5,5,0,0,0-1.41-1.08,8,8,0,0,0-3-1.06,3.28,3.28,0,0,0-1.39.12,1.86,1.86,0,0,1-.41.1c-.09,0-.24,0-.27-.08a.32.32,0,0,1,.06-.28,2.89,2.89,0,0,1,1.24-.82,5,5,0,0,1,1.93-.34,3.89,3.89,0,0,1,2.48.86Z"/>
    <path class="cls-13" d="M127.78,65.44a14.22,14.22,0,0,0-1.8.07,3.92,3.92,0,0,0-2.49,1.36c-.24.29-.53.53-.78.81s-.44.52-.7.83a1.34,1.34,0,0,1-.29-.2c-.29-.33-.56-.68-.86-1a4.91,4.91,0,0,0-3.53-1.6,3.55,3.55,0,0,0-.65.07l-.59.1c-.12-.28,0-.42.18-.57a2.45,2.45,0,0,1,1.25-.6,4.26,4.26,0,0,1,3.19.36,11.24,11.24,0,0,1,1.18.9,3.82,3.82,0,0,1,1.51-1.22,4.25,4.25,0,0,1,2.8-.52,2.71,2.71,0,0,1,1.49.92.76.76,0,0,1,.11.2S127.79,65.42,127.78,65.44Z"/>
    <path class="cls-13" d="M136,68.42c-.41-.31-.73-.59-1.1-.83a5.39,5.39,0,0,0-3.88-.93c-.29,0-.57.17-.86.25a3.9,3.9,0,0,1-.48.06,1.28,1.28,0,0,1,.78-.8,5.71,5.71,0,0,1,3.71-.41,5.53,5.53,0,0,1,1.09.48,4.28,4.28,0,0,1,4.42-2.47c.63,0,1,.19,1.14.5a6.59,6.59,0,0,0-3.12,1.24A5.19,5.19,0,0,0,136,68.42Z"/>
  </g>
  <g>
    <path class="cls-13" d="M123.57,96.55a3.36,3.36,0,0,1,1-1.24,3.66,3.66,0,0,1,2.24-.74,3.77,3.77,0,0,1,1.48.17c.21.08.41.18.61.28l.24.12-.08.13a2.14,2.14,0,0,1-.37,0,2.89,2.89,0,0,0-2.08.58,9.77,9.77,0,0,0-1.1.84,4.17,4.17,0,0,0-1.25,2,.82.82,0,0,1-.2-.12,4.21,4.21,0,0,0-1.19-.9,6.7,6.7,0,0,0-2.55-.89,2.76,2.76,0,0,0-1.17.1,1.56,1.56,0,0,1-.34.09c-.08,0-.2,0-.23-.06a.27.27,0,0,1,.05-.24,2.43,2.43,0,0,1,1-.69,4.22,4.22,0,0,1,1.62-.28,3.27,3.27,0,0,1,2.08.72Z"/>
    <path class="cls-13" d="M124.14,90.22a12,12,0,0,0-1.51.06,3.3,3.3,0,0,0-2.1,1.14c-.2.24-.45.45-.66.68s-.37.44-.59.7a1.13,1.13,0,0,1-.25-.17c-.25-.27-.47-.57-.72-.84a4.13,4.13,0,0,0-3-1.35,3,3,0,0,0-.55.06l-.5.09c-.1-.24,0-.36.15-.48a2.06,2.06,0,0,1,1.05-.51,3.58,3.58,0,0,1,2.68.31,9.45,9.45,0,0,1,1,.76,3.21,3.21,0,0,1,1.27-1,3.57,3.57,0,0,1,2.36-.44,2.28,2.28,0,0,1,1.25.78.64.64,0,0,1,.09.17S124.15,90.2,124.14,90.22Z"/>
    <path class="cls-13" d="M131,92.73c-.34-.26-.62-.5-.92-.7a4.53,4.53,0,0,0-3.26-.78c-.24,0-.48.14-.72.21a3.28,3.28,0,0,1-.41,0,1.07,1.07,0,0,1,.65-.67,4.8,4.8,0,0,1,3.12-.34,4.65,4.65,0,0,1,.92.4,3.6,3.6,0,0,1,3.71-2.08c.53,0,.83.16,1,.42a5.54,5.54,0,0,0-2.63,1A4.36,4.36,0,0,0,131,92.73Z"/>
  </g>
</svg>
