<svg id="Calque_1" data-name="Calque 1" xmlns="http://www.w3.org/2000/svg" xmlns:xlink="http://www.w3.org/1999/xlink" viewBox="0 0 200 200">
  <defs>
    <style>
      .cls-1 {
        fill: none;
      }

      .cls-2 {
        fill: #59c0cf;
      }

      .cls-3, .cls-7 {
        opacity: 0.2;
      }

      .cls-4, .cls-7 {
        fill: #3c4f7e;
      }

      .cls-5 {
        fill: #86999e;
      }

      .cls-6 {
        fill: #e30613;
      }

      .cls-8, .cls-9 {
        fill: #fff;
      }

      .cls-8 {
        opacity: 0.69;
      }

      .cls-10 {
        clip-path: url(#clip-path);
      }

      .cls-11 {
        fill: #f3d5ab;
      }

      .cls-12 {
        fill: #f9ecba;
      }

      .cls-13 {
        fill: #00764d;
      }

      .cls-14 {
        fill: #acbd9e;
      }

      .cls-15 {
        fill: #cee5cf;
      }
    </style>
    <clipPath id="clip-path">
      <circle class="cls-1" cx="99.18" cy="102.05" r="75"/>
    </clipPath>
  </defs>
  <title>Home_Qualité</title>
  <g>
    <circle class="cls-2" cx="99.18" cy="102.05" r="75"/>
    <g class="cls-3">
      <path class="cls-4" d="M70.31,148.9s-9-18.4.54-30.18C79,108.64,84.76,94.7,79,83.81a1.15,1.15,0,0,1,1.85-1.33c2.77,3,5.35,8.16,4.58,16.76C83.94,116.45,71,130.08,89,148.9Z"/>
      <path class="cls-4" d="M49.88,148.9s-4.48-9.2.27-15.09c4.07-5,7-12,4.1-17.46a.58.58,0,0,1,.93-.67c1.39,1.5,2.68,4.08,2.29,8.38-.77,8.6-7.22,15.42,1.74,24.83Z"/>
      <path class="cls-4" d="M80.57,148.9s-4.48-9.2.27-15.09c4.07-5,7-12,4.1-17.46a.58.58,0,0,1,.93-.67c1.39,1.5,2.68,4.08,2.29,8.38-.77,8.6-7.22,15.42,1.74,24.83Z"/>
      <path class="cls-4" d="M66.44,145.31S72.94,132,66,123.42C60.14,116.1,56,106,60.11,98.09a.84.84,0,0,0-1.34-1c-2,2.18-3.88,5.92-3.33,12.16,1.12,12.48,10.48,22.37-2.52,36Z"/>
      <path class="cls-4" d="M75.49,145.31s5.22-10.72-.31-17.59c-4.74-5.88-8.1-14-4.77-20.34a.67.67,0,0,0-1.08-.78c-1.62,1.75-3.12,4.75-2.67,9.77.9,10,8.42,18-2,28.94Z"/>
    </g>
    <g>
      <path class="cls-5" d="M96.61,79.57a.86.86,0,0,1-1,.69h0a.86.86,0,0,1-.69-1l8.55-45.37a.86.86,0,0,1,1-.69h0a.86.86,0,0,1,.69,1Z"/>
      <path class="cls-6" d="M109.61,59l-1.69,9A9.82,9.82,0,1,1,88.61,64.3l1.69-9Z"/>
      <path class="cls-4" d="M111.29,50l-1.69,9L90.3,55.32l1.69-9A9.82,9.82,0,1,1,111.29,50Z"/>
      <g>
        <path class="cls-4" d="M92.42,90.86A2.85,2.85,0,0,0,92.53,95a3.59,3.59,0,0,0,4.7-.09c1.28-1.1,1.94-3,.67-4.41-1.43-1.54-3.81-1-5.29.15-.38.3-.6.86-.12,1.19a1.48,1.48,0,0,0,1.64-.13c.57-.46,1.19-.72,1.76-.1a1.63,1.63,0,0,1-.24,2.29,2.27,2.27,0,0,1-.31.22c-.16.05-.13,0-.31,0a1.47,1.47,0,0,1-.76-.49,1.52,1.52,0,0,1,.05-2.12.67.67,0,0,0-.3-1.12,1.56,1.56,0,0,0-1.62.43Z"/>
        <g>
          <path class="cls-4" d="M115,111.22a6.74,6.74,0,0,1-4.64,2.66,9.27,9.27,0,0,1-2.06.06,7.77,7.77,0,0,1-2.11-.47,8.37,8.37,0,0,1-2.35-1.36c-.15-1.05,0-2.33-.09-2.91,0-.15,0-.32-.06-.47a8.36,8.36,0,0,0,3.18,3.09,9.08,9.08,0,0,0,1.22.49,5,5,0,0,0,2.24.24h0a3.93,3.93,0,0,0,1.91-.86A8.89,8.89,0,0,1,115,111.22Z"/>
          <path class="cls-4" d="M103.8,112.11a10.83,10.83,0,0,1-2.43-2.77s-.06-.11-.09-.15a52,52,0,0,1-6.43-13.77c-.25-.93,2-1.55,2.28-.61s.47,1.62.76,2.41a50,50,0,0,0,3.4,7.31c.7,1.28,1.43,2.83,2.37,4.2,0,.15,0,.32.06.47C103.78,109.78,103.65,111.06,103.8,112.11Z"/>
          <path class="cls-4" d="M116.08,109.18a7.34,7.34,0,0,1-1.12,2,8.89,8.89,0,0,0-2.73.45,5.69,5.69,0,0,0,1.64-2.57,10.72,10.72,0,0,0,.58-4.2,13,13,0,0,1-1.25.76l-.94.51a11,11,0,0,1-1.24.53h0c-.47.19-.88.27-.73,0s.28-.48.4-.7a1.23,1.23,0,0,1,.15-.25,12.52,12.52,0,0,0,2.41-5.51c.88-4.45,1.42-2.08,2.2-.59A12.06,12.06,0,0,1,116.08,109.18Z"/>
        </g>
      </g>
      <path class="cls-4" d="M102.32,36.49c1.31.52,2.27.95,3.52.19.15-.09.28-.23.18-.41-.66-1.17-3.62-2.13-.57-1.59,1.4.25,3.29-1.43,4.32-2.22,2.21-1.7,3.24-4.76,5.39-6.69,3.15-2.84,8.18-5.39,12.47-4.13.35.1.92-.4.45-.54-4.13-1.2-8.25.71-11.67,2.94a16.6,16.6,0,0,0-5.35,5.45c-1.09,2-3.75,5.27-6.45,4.3a2,2,0,0,0-1.74.1c-.12,0-.33.14-.32.3s0,.42.11.55a3.84,3.84,0,0,0,1.14.75c1.61.88-.45.69-1,.46-.34-.13-.91.36-.45.54Z"/>
      <path class="cls-4" d="M97.58,77c-.49,0-3.51-.43-3.49.66,0,.6.29.89.89,1.11.37.14,1.13.58,1.54.48a2.06,2.06,0,0,0-1.32.6c-.9.67-.65,2.46-.67,3.37,0,2.18.24,4.06-.28,6.23-.25,1-.57,3.22,1.06,2.83.49-.12.34-.66-.15-.54-.64.15.31-4.68.32-4.85.24-2.28-1.44-6.45,1.82-7.25.2,0,.48-.32.23-.5A5.7,5.7,0,0,0,96,78.47q-1.18-1.37.52-.91l.79,0c.38,0,.8-.55.27-.57Z"/>
      <circle class="cls-7" cx="125.42" cy="72.78" r="6.01"/>
      <ellipse class="cls-8" cx="122.9" cy="69.56" rx="2.94" ry="1.28" transform="translate(-17.88 80.73) rotate(-34.05)"/>
      <circle class="cls-7" cx="130.45" cy="85.9" r="4.23"/>
      <ellipse class="cls-8" cx="128.68" cy="83.63" rx="2.07" ry="0.9" transform="translate(-24.76 86.39) rotate(-34.05)"/>
      <circle class="cls-7" cx="121.99" cy="92.14" r="2.9"/>
      <ellipse class="cls-8" cx="120.78" cy="90.58" rx="1.42" ry="0.62" transform="translate(-30.01 83.15) rotate(-34.05)"/>
      <polygon class="cls-9" points="91.33 49.45 89.07 61.38 108.38 65.38 110.74 53.24 91.33 49.45"/>
      <path class="cls-5" d="M96,78.47s-.91-.29-.82-.64.19-1,.19-1l.54-.14.46-.05.52,0,.24.06-.25,1.33-.35.32Z"/>
      <path class="cls-5" d="M103.76,37.43s-.94-.29-.85-.64.19-1,.19-1l.09-.47a5.91,5.91,0,0,1,.17-.69c.09-.22.88-.14.88-.14l.84.1-.46,2.45-.32.32Z"/>
    </g>
    <g class="cls-10">
      <g>
        <path class="cls-11" d="M37,143.51s29.31,3.74,57.26,1.37,62.53-1.94,74.17,2.27S149,175.07,149,175.07l-9.36,12L77,189.29,45,177.81,34.51,161.35,32.39,147.5l1.5-3.87Z"/>
        <path class="cls-12" d="M38.25,149.62s26.44-17.09,59.87,0,50.27,10.73,50.27,10.73L130.68,173.7l-39.79,4.49-36.42-5.36-14-13.6-3-6.24Z"/>
      </g>
    </g>
    <path class="cls-7" d="M61.14,79.71c-.29-.4-1.32-.21-2,.5a2.09,2.09,0,0,1-1.42.71c.08-.13-.1-.65-.61-1s-.65-2.26-3.88-2.79-4.8.48-4.8.48A3.34,3.34,0,0,0,46,80.44c-.08.57-.73.78-.73.9s.46.44.46.44a.24.24,0,0,0-.17.25c0,.21.54.13.54.13a5.92,5.92,0,0,0,2.82,2.21c.24.5,1.07,2,2.19,1.77,0,0,.5-.33-.23-1.34a5.22,5.22,0,0,0,.82,0C56.48,86.57,58,83.12,58,82.69s-.88-.28-.88-.28c.55-.4,1.42,0,1.9.69a3.86,3.86,0,0,0,1.3,1.15s.15-.15-.1-1.53A4.84,4.84,0,0,1,61.14,79.71Z"/>
    <path class="cls-7" d="M100.51,130.33s.37-.18,1.44.39a1.5,1.5,0,0,0,1.21,0c-.21-.94.17-1,.93-1.38s1.63.51,1.63.51h0a8.15,8.15,0,0,1,1.15-.17.65.65,0,0,1,0-.61,1.16,1.16,0,0,1,1.82-.35,1.87,1.87,0,0,1,.71,1.13h0a3.58,3.58,0,0,1,1.89,1.08s.83.18,1,1.49c.14.94-1.61,1.29-3.25,1.29a1.62,1.62,0,0,1-1.34,1c-1.12.11-1.25-.69-1.25-.69a4.14,4.14,0,0,1,.67-.49c-1.67-.27-2.87,1.07-3.76.18a.71.71,0,0,1-.07-1.08s-.94-.11-1.23.18-1.31.66-1.77.11v-.33a.85.85,0,0,1-.48-.42A1.14,1.14,0,0,1,100.51,130.33Z"/>
    <path class="cls-7" d="M78.15,97.15a.15.15,0,0,0-.1-.21,1.77,1.77,0,0,1-1.24-1.16,6.45,6.45,0,0,0-7.74-4,1.18,1.18,0,0,0-.95,1.25,15.56,15.56,0,0,0,.52,3.19,10.79,10.79,0,0,0-1.45-1,.35.35,0,0,0-.52.31A9.55,9.55,0,0,0,67,98.41a.36.36,0,0,0,.59.14,15.45,15.45,0,0,1,1.27-1.15s-1.12,2.08-.06,3.17a.67.67,0,0,0,.69.17,21.53,21.53,0,0,1,2.18-.64,3,3,0,0,0,2.68-1A2.3,2.3,0,0,0,76,98.28a2.72,2.72,0,0,1,2-.69.15.15,0,0,0,.12-.25l0,0Z"/>
    <path class="cls-7" d="M147.36,113.83a.13.13,0,0,1,.09-.17,1.49,1.49,0,0,0,1-1,5.42,5.42,0,0,1,6.51-3.35,1,1,0,0,1,.8,1.05,13.09,13.09,0,0,1-.44,2.68,9.08,9.08,0,0,1,1.22-.84.3.3,0,0,1,.44.26,8,8,0,0,1-.27,2.41.3.3,0,0,1-.49.12,13,13,0,0,0-1.07-1s.95,1.75,0,2.67a.57.57,0,0,1-.58.14,18.12,18.12,0,0,0-1.83-.53,2.55,2.55,0,0,1-2.26-.83,1.93,1.93,0,0,1-1.4-.69,2.29,2.29,0,0,0-1.69-.58.13.13,0,0,1-.1-.21l0,0Z"/>
    <path class="cls-7" d="M36.58,96.28a.13.13,0,0,1,.09-.17,1.49,1.49,0,0,0,1-1,5.42,5.42,0,0,1,6.51-3.35,1,1,0,0,1,.8,1.05,13.09,13.09,0,0,1-.44,2.68,9.08,9.08,0,0,1,1.22-.84.3.3,0,0,1,.44.26A8,8,0,0,1,46,97.33a.3.3,0,0,1-.49.12,13,13,0,0,0-1.07-1s.95,1.75,0,2.67a.57.57,0,0,1-.58.14A18.12,18.12,0,0,0,42,98.75a2.55,2.55,0,0,1-2.26-.83,1.93,1.93,0,0,1-1.4-.69,2.29,2.29,0,0,0-1.69-.58.13.13,0,0,1-.1-.21l0,0Z"/>
    <g>
      <path class="cls-13" d="M142.84,145.36s2.17-1.72,3.69-1.72,3.61-.33,3.2-1.19-2.66-2.75-1.11-3,3.07.25,3.85-.33,2.5-1.72,2.5-2.09-2,.08-2.09-.25-.49-.7,1.47-2.09,5.29-3.93,5-4.88-1.52-.29-1.68.2-1,1.93-1.56,1.47-1-.49.33-3.65,1.39-4.63.78-4.55-2.87,2.42-2.91,4.42-.61,3-1.19,2.75-.61-.94-.29-1.88.33-3-1.47-2.38-.74,3.61-1.15,4.67-1.64,5.12-2.5,5.37a2,2,0,0,0-1.6,1.72c0,.78-2.62,1.11-2.58-.66s2.09-2.21,2.21-2.54.66-2.38-.57-2.25-.82,1.27-1.07,1.35-3.11,1.07-2.62-.94,5.94-5.41,5.61-7.13-1.93-.74-2.17-.29-1.6,2.87-2.29,2.42-.53-.33-.33-1.76,4-7.91,1.76-9.34-1.84,5.29-2.54,5.2-1.56,0-1.76-1.27-1-5.16-2.79-4.38,1.8,6.23,1.84,6.8,1.15,3.85-1.11,3.44-2.46-3.4-2.91-2.95,2.87,5.78,2.83,6.35-.25,1.56-1.07,1.6.41,1.93.2,2.54-.78,2-1.84.86-1.47-2.5-1.23-4.92,0-2.87-.49-3.24a13,13,0,0,1-2.5-4.14c-.12-.86-1.93-3.11-3.69-2.87s-1.23,1.68-.45,2.17,4.59,2.83,4.14,3.77-1.19,1.76-2.62,1-3.07-2.54-3.65-2,.74,3.07,1.56,3.32,5,.82,5,1.64.16,1.84-1.23,1.84-2.17.37-1.47,1.11,4,1.35,3.89,2.17a7.29,7.29,0,0,1-.7,2l5.45,3.4.25,4.18,1.56,2h2.58Z"/>
      <path class="cls-14" d="M115.6,151.62s-.34-8.23.2-9.32,1.7-3.88,3.95-4.56,11.43-3.27,17.42,1.36,6.46,10,6.46,10S137.51,157.6,115.6,151.62Z"/>
      <path class="cls-15" d="M115.68,151.39s3.26-4.24,4.81-4.09,4.71.41,5.59-.52,2.17-1.76,2.74-3.62c0,0,6.23,1.3,8.34-4.06l-3.94-2-4.66-.67-4.14.21-3.36.83a13.16,13.16,0,0,1-2.33.67,16.18,16.18,0,0,0-1.55,1.66l-1,1.86-.62,1.6,0,8.41"/>
    </g>
  </g>
</svg>
