<svg id="Calque_1" data-name="Calque 1" xmlns="http://www.w3.org/2000/svg" xmlns:xlink="http://www.w3.org/1999/xlink" viewBox="0 0 150 150">
  <defs>
    <style>
      .cls-1 {
        fill: none;
      }

      .cls-2 {
        fill: #59c0cf;
      }

      .cls-3 {
        clip-path: url(#clip-path);
      }

      .cls-4 {
        fill: #f3d5ab;
      }

      .cls-5 {
        fill: #3c4f7e;
        opacity: 0.2;
      }

      .cls-6 {
        fill: #acbd9e;
      }

      .cls-7 {
        fill: #cee5cf;
      }

      .cls-8 {
        fill: #e94a2f;
      }

      .cls-9 {
        fill: #fdc530;
      }

      .cls-10 {
        fill: #ec7b2d;
      }

      .cls-11 {
        fill: #fff;
      }

      .cls-12 {
        fill: #010101;
      }
    </style>
    <clipPath id="clip-path">
      <circle class="cls-1" cx="75.91" cy="77.62" r="50"/>
    </clipPath>
  </defs>
  <title>Home_Fonctionnement</title>
  <g>
    <circle class="cls-2" cx="75.91" cy="77.62" r="50"/>
    <g class="cls-3">
      <path class="cls-4" d="M34.46,105.26s19.54,2.49,38.17.91,41.69-1.29,49.45,1.52-12.94,18.61-12.94,18.61l-6.24,8-41.75,1.5-21.37-7.65-7-11-1.41-9.23,1-2.58Z"/>
    </g>
    <path class="cls-5" d="M50.67,62.79c-.19-.26-.88-.14-1.31.33a1.39,1.39,0,0,1-.95.47c.06-.08-.07-.43-.4-.65s-.43-1.5-2.57-1.85a4.79,4.79,0,0,0-3.18.32,2.22,2.22,0,0,0-1.63,1.86c-.06.38-.49.51-.49.6s.31.29.31.29a.16.16,0,0,0-.11.17c0,.14.36.08.36.08a3.93,3.93,0,0,0,1.87,1.47c.16.33.71,1.31,1.45,1.17,0,0,.33-.22-.15-.89a3.47,3.47,0,0,0,.55,0c3.16,1.18,4.2-1.11,4.17-1.4s-.58-.19-.58-.19c.37-.26.94,0,1.26.46a2.56,2.56,0,0,0,.86.76s.1-.1-.07-1A3.21,3.21,0,0,1,50.67,62.79Z"/>
    <path class="cls-5" d="M76.79,96.39s.25-.12,1,.26a1,1,0,0,0,.8,0c-.14-.62.11-.68.62-.91s1.08.34,1.08.34h0A5.41,5.41,0,0,1,81,96a.43.43,0,0,1,0-.4.77.77,0,0,1,1.21-.23,1.24,1.24,0,0,1,.47.75h0a2.37,2.37,0,0,1,1.25.72s.55.12.68,1c.09.62-1.07.86-2.16.86a1.07,1.07,0,0,1-.89.67c-.74.07-.83-.46-.83-.46a2.75,2.75,0,0,1,.45-.32c-1.11-.18-1.91.71-2.49.12a.47.47,0,0,1,0-.71s-.62-.07-.81.12-.87.44-1.18.07V97.9a.56.56,0,0,1-.32-.28A.76.76,0,0,1,76.79,96.39Z"/>
    <path class="cls-5" d="M67.75,51.33a.1.1,0,0,0-.07-.14,1.18,1.18,0,0,1-.82-.77,4.28,4.28,0,0,0-5.14-2.64.79.79,0,0,0-.63.83,10.33,10.33,0,0,0,.35,2.11,7.16,7.16,0,0,0-1-.67.24.24,0,0,0-.34.21,6.34,6.34,0,0,0,.21,1.9.24.24,0,0,0,.39.09,10.25,10.25,0,0,1,.84-.77s-.75,1.38,0,2.1a.45.45,0,0,0,.46.11,14.29,14.29,0,0,1,1.45-.42,2,2,0,0,0,1.78-.66,1.52,1.52,0,0,0,1.1-.54,1.81,1.81,0,0,1,1.33-.46.1.1,0,0,0,.08-.17l0,0Z"/>
    <path class="cls-5" d="M107.88,85.43a.09.09,0,0,1,.06-.12,1,1,0,0,0,.69-.65A3.6,3.6,0,0,1,113,82.45a.66.66,0,0,1,.53.7,8.69,8.69,0,0,1-.29,1.78,6,6,0,0,1,.81-.56.2.2,0,0,1,.29.17,5.33,5.33,0,0,1-.18,1.6.2.2,0,0,1-.33.08,8.63,8.63,0,0,0-.71-.64s.63,1.16,0,1.77a.38.38,0,0,1-.39.09,12,12,0,0,0-1.22-.35,1.69,1.69,0,0,1-1.5-.55,1.28,1.28,0,0,1-.93-.46,1.52,1.52,0,0,0-1.12-.39.09.09,0,0,1-.06-.14l0,0Z"/>
    <path class="cls-5" d="M34.36,73.79a.09.09,0,0,1,.06-.12,1,1,0,0,0,.69-.65,3.6,3.6,0,0,1,4.32-2.22.66.66,0,0,1,.53.7,8.69,8.69,0,0,1-.29,1.78,6,6,0,0,1,.81-.56.2.2,0,0,1,.29.17,5.33,5.33,0,0,1-.18,1.6.2.2,0,0,1-.33.08,8.63,8.63,0,0,0-.71-.64s.63,1.16,0,1.77a.38.38,0,0,1-.39.09A12,12,0,0,0,38,75.43a1.69,1.69,0,0,1-1.5-.55,1.28,1.28,0,0,1-.93-.46A1.52,1.52,0,0,0,34.44,74a.09.09,0,0,1-.06-.14l0,0Z"/>
    <g>
      <path class="cls-6" d="M58.9,111.23s.14-11.34,1-12.8,2.63-5.2,5.76-6,16-3.64,23.84,3.17,8.14,14.23,8.14,14.23S88.56,121.09,58.9,111.23Z"/>
      <path class="cls-7" d="M59,110.92s4.8-5.59,6.92-5.26,6.44.92,7.72-.3,3.12-2.26,4-4.78c0,0,8.46,2.25,11.77-5l-4.31-3.33-7.31-1-5.71,0-4.69.89s-3.26,1-3.25.75A22.26,22.26,0,0,0,62,95l-1.21,1.78L60,98.21c-.74.78-.9,7.22-1,8.27l-.14,4.75"/>
    </g>
    <path class="cls-8" d="M76.57,56.33l4.62,16a2.16,2.16,0,0,0,2.31,1.55l12.59-1.36a.72.72,0,0,1,.62,1.19L87,84.8a2.16,2.16,0,0,0,.24,3.08l11.1,9.28a.72.72,0,0,1-.57,1.26L79.64,94.08a22,22,0,0,0-6.76,0l-19.55,4.6a.72.72,0,0,1-.59-1.25l11.1-9.8A2.16,2.16,0,0,0,64,84.52L53.51,73.24a.72.72,0,0,1,.62-1.2l12.92,1.68a2.16,2.16,0,0,0,2.31-1.4l5.84-16A.72.72,0,0,1,76.57,56.33Z"/>
    <path class="cls-9" d="M78.68,82a3.46,3.46,0,0,1-5.48,3.59c-.33-.26-1.22-1-1.18-1.52.06-.81,1.08-.6,1.69-.66A15.25,15.25,0,0,0,78.68,82Z"/>
    <circle class="cls-10" cx="67.84" cy="90.86" r="1.63"/>
    <circle class="cls-10" cx="62.88" cy="93.4" r="1.12"/>
    <circle class="cls-10" cx="87.66" cy="93.29" r="1.12"/>
    <circle class="cls-10" cx="89.97" cy="76.63" r="1.12"/>
    <circle class="cls-10" cx="62.32" cy="76.99" r="1.12"/>
    <circle class="cls-10" cx="58.5" cy="74.89" r="0.81"/>
    <circle class="cls-10" cx="75.73" cy="63.25" r="1.12"/>
    <circle class="cls-10" cx="83.16" cy="91.39" r="1.63"/>
    <circle class="cls-10" cx="85.95" cy="79.09" r="1.63"/>
    <circle class="cls-10" cx="66.67" cy="78.95" r="1.63"/>
    <circle class="cls-10" cx="75.56" cy="67.91" r="1.63"/>
    <circle class="cls-10" cx="58.51" cy="95.61" r="0.81"/>
    <circle class="cls-10" cx="91.72" cy="95.07" r="0.81"/>
    <circle class="cls-10" cx="93.41" cy="74.7" r="0.81"/>
    <circle class="cls-10" cx="75.8" cy="59.85" r="0.81"/>
    <g>
      <path class="cls-11" d="M65.33,75.19c-.34,2.63,2.52,4.44,4.92,3.9,2.76-.62,3.23-4.72,1.23-6.39a3.58,3.58,0,0,0-5,.24A4.08,4.08,0,0,0,65.33,75.19Z"/>
      <path class="cls-12" d="M70.85,76.56a2,2,0,0,0-.41-3.77,2,2,0,1,0,.41,3.77Z"/>
      <path class="cls-11" d="M70.93,74.85a.73.73,0,0,0,.63-1.21.68.68,0,0,0-1.18.19A.76.76,0,0,0,70.93,74.85Z"/>
      <path class="cls-11" d="M75.52,73.71c-.39,3,2.91,5.11,5.67,4.49,3.17-.71,3.72-5.44,1.42-7.36a4.12,4.12,0,0,0-5.76.28A4.7,4.7,0,0,0,75.52,73.71Z"/>
      <path class="cls-12" d="M81.88,75.3A2.28,2.28,0,0,0,81.4,71a2.27,2.27,0,1,0,.47,4.34Z"/>
      <path class="cls-11" d="M82,73.33a.84.84,0,0,0,.73-1.39.79.79,0,0,0-1.36.22A.88.88,0,0,0,82,73.33Z"/>
    </g>
  </g>
</svg>
