<svg id="Calque_1" data-name="Calque 1" xmlns="http://www.w3.org/2000/svg" viewBox="0 0 250 250">
  <defs>
    <style>
      .cls-1 {
        fill: #f2f7f7;
      }

      .cls-2 {
        fill: #ce9c60;
      }

      .cls-3, .cls-4 {
        fill: #b87b3b;
      }

      .cls-3 {
        opacity: 0.5;
      }

      .cls-5 {
        fill: #d08f52;
      }

      .cls-6, .cls-8 {
        fill: #fff;
      }

      .cls-7 {
        fill: #d8ecf3;
      }

      .cls-8 {
        fill-rule: evenodd;
      }

      .cls-9 {
        fill: #be292e;
      }

      .cls-10 {
        fill: #676767;
      }

      .cls-11 {
        fill: #1b355f;
      }

      .cls-12 {
        fill: #182026;
      }

      .cls-13 {
        fill: #1a2a49;
      }

      .cls-14 {
        fill: #6b7a99;
      }

      .cls-15 {
        fill: #718393;
      }

      .cls-16 {
        fill: #97a6ad;
      }

      .cls-17 {
        fill: #ec6241;
      }

      .cls-18 {
        fill: #ea5133;
      }

      .cls-19 {
        fill: #e4beb7;
      }

      .cls-20 {
        fill: #f0cdcb;
      }

      .cls-21 {
        fill: #3c4f7e;
      }

      .cls-22 {
        fill: #ffe676;
      }
    </style>
  </defs>
  <title>LeCasierdelaMer</title>
  <g>
    <circle class="cls-1" cx="124.03" cy="125.24" r="100"/>
    <path class="cls-2" d="M28.3,154.4a100,100,0,0,0,191.32,0Z"/>
    <g>
      <path class="cls-3" d="M41.36,165.08c9.85-.12,19.69-.16,29.54-.19l29.54,0,29.53.21,14.77.17,14.77.25-14.77.14-14.77.05-29.54,0-29.53-.21C61,165.4,51.2,165.28,41.36,165.08Z"/>
      <path class="cls-4" d="M53.5,176c9.85-.12,19.69-.16,29.54-.19l29.54,0,29.53.21,14.77.17,14.77.25-14.77.14-14.77.05-29.54,0L83,176.4C73.19,176.3,63.34,176.18,53.5,176Z"/>
      <path class="cls-4" d="M94.88,162.1c9.85-.12,19.69-.16,29.54-.19l29.54,0,29.53.21,14.77.17,14.77.25-14.77.14-14.77.05-29.54,0-29.53-.21C114.57,162.42,104.73,162.31,94.88,162.1Z"/>
      <path class="cls-4" d="M88.19,172.51c9.85-.17,19.69-.22,29.54-.26h29.54l29.53.23,14.77.2,14.77.3-14.77.19-14.77.08H147.26L117.73,173C107.88,172.89,98,172.75,88.19,172.51Z"/>
      <path class="cls-3" d="M108.56,212c4.81-.15,9.62-.2,14.43-.25s9.62,0,14.42,0,9.62.07,14.42.15l7.21.14c2.4.08,4.81.12,7.21.22-2.4.08-4.81.11-7.21.17l-7.21.08c-4.81,0-9.62,0-14.42,0s-9.62-.07-14.42-.15S113.37,212.2,108.56,212Z"/>
      <path class="cls-5" d="M123.2,188.44c6.27-.12,12.54-.16,18.81-.19l18.81,0,18.8.21,9.4.17,9.4.25-9.4.14-9.4.05-18.81,0-18.8-.21C135.74,188.76,129.47,188.65,123.2,188.44Z"/>
      <path class="cls-5" d="M67.52,199.31c6.27-.12,12.54-.16,18.81-.19l18.81,0,18.8.21,9.4.17,9.4.25-9.4.14-9.4.05-18.81,0-18.8-.21C80.05,199.63,73.78,199.51,67.52,199.31Z"/>
    </g>
    <path class="cls-6" d="M205.37,54.15a7.28,7.28,0,0,0-11.2-4.64,12.49,12.49,0,0,0-23.28,4.16,7.27,7.27,0,0,0-8.25,4.09A5.41,5.41,0,1,0,160.28,68h42.06a7.28,7.28,0,0,0,3-13.89Z"/>
    <path class="cls-7" d="M94.73,41.36a6.06,6.06,0,0,0-.73,0A8.3,8.3,0,0,0,84.58,37a11.85,11.85,0,0,0-23.7.17A8.3,8.3,0,0,0,50,45.1c0,.15,0,.3,0,.45h0a3.93,3.93,0,1,0,0,7.85H94.73a6,6,0,0,0,0-12Z"/>
    <g>
      <path class="cls-8" d="M58.53,124.06a4.56,4.56,0,0,1,1.3-1.68,5,5,0,0,1,3-1,5.13,5.13,0,0,1,2,.23c.28.11.55.25.83.38l.33.17-.11.18a2.91,2.91,0,0,1-.5,0,3.92,3.92,0,0,0-2.83.79,13.28,13.28,0,0,0-1.49,1.14,5.66,5.66,0,0,0-1.7,2.65,1.11,1.11,0,0,1-.28-.17,5.73,5.73,0,0,0-1.62-1.23,9.1,9.1,0,0,0-3.47-1.21,3.75,3.75,0,0,0-1.59.14,2.12,2.12,0,0,1-.47.12c-.11,0-.28,0-.31-.09a.36.36,0,0,1,.07-.32,3.31,3.31,0,0,1,1.42-.94,5.74,5.74,0,0,1,2.2-.39,4.45,4.45,0,0,1,2.83,1C58.31,123.91,58.4,124,58.53,124.06Z"/>
      <path class="cls-8" d="M59.32,115.46a16.26,16.26,0,0,0-2.05.08,4.48,4.48,0,0,0-2.85,1.55c-.27.33-.61.61-.89.93s-.5.6-.8,1a1.53,1.53,0,0,1-.34-.23c-.33-.37-.64-.77-1-1.14a5.61,5.61,0,0,0-4-1.83,4.06,4.06,0,0,0-.74.08L46,116c-.14-.32,0-.48.2-.65a2.8,2.8,0,0,1,1.43-.69,4.87,4.87,0,0,1,3.64.41,12.85,12.85,0,0,1,1.35,1,4.36,4.36,0,0,1,1.73-1.4,4.85,4.85,0,0,1,3.2-.6,3.1,3.1,0,0,1,1.7,1.06.87.87,0,0,1,.13.23S59.32,115.44,59.32,115.46Z"/>
      <path class="cls-8" d="M68.7,118.87c-.46-.35-.84-.68-1.26-.95A6.16,6.16,0,0,0,63,116.86c-.33.06-.65.2-1,.28a4.46,4.46,0,0,1-.55.07,1.46,1.46,0,0,1,.89-.91,6.52,6.52,0,0,1,4.24-.47,6.32,6.32,0,0,1,1.25.55,4.9,4.9,0,0,1,5-2.82c.72,0,1.13.22,1.3.58a7.53,7.53,0,0,0-3.57,1.42A5.93,5.93,0,0,0,68.7,118.87Z"/>
    </g>
    <g>
      <path class="cls-8" d="M134.88,89.4a4.56,4.56,0,0,1,1.3-1.68,5,5,0,0,1,3-1,5.13,5.13,0,0,1,2,.23c.28.11.55.25.83.38l.33.17-.11.18a2.91,2.91,0,0,1-.5,0,3.92,3.92,0,0,0-2.83.79,13.28,13.28,0,0,0-1.49,1.14,5.66,5.66,0,0,0-1.7,2.65,1.11,1.11,0,0,1-.28-.17,5.73,5.73,0,0,0-1.62-1.23,9.1,9.1,0,0,0-3.47-1.21,3.75,3.75,0,0,0-1.59.14,2.12,2.12,0,0,1-.47.12c-.11,0-.28,0-.31-.09a.36.36,0,0,1,.07-.32,3.31,3.31,0,0,1,1.42-.94,5.74,5.74,0,0,1,2.2-.39,4.45,4.45,0,0,1,2.83,1C134.65,89.24,134.74,89.3,134.88,89.4Z"/>
      <path class="cls-8" d="M135.67,80.8a16.26,16.26,0,0,0-2.05.08,4.48,4.48,0,0,0-2.85,1.55c-.27.33-.61.61-.89.93s-.5.6-.8,1a1.53,1.53,0,0,1-.34-.23c-.33-.37-.64-.77-1-1.14a5.61,5.61,0,0,0-4-1.83,4.06,4.06,0,0,0-.74.08l-.68.12c-.14-.32,0-.48.2-.65a2.8,2.8,0,0,1,1.43-.69,4.87,4.87,0,0,1,3.64.41,12.85,12.85,0,0,1,1.35,1,4.36,4.36,0,0,1,1.73-1.4,4.85,4.85,0,0,1,3.2-.6,3.1,3.1,0,0,1,1.7,1.06.87.87,0,0,1,.13.23S135.67,80.77,135.67,80.8Z"/>
      <path class="cls-8" d="M145,84.2c-.46-.35-.84-.68-1.26-.95a6.16,6.16,0,0,0-4.44-1.06c-.33.06-.65.2-1,.28a4.46,4.46,0,0,1-.55.07,1.46,1.46,0,0,1,.89-.91,6.52,6.52,0,0,1,4.24-.47,6.32,6.32,0,0,1,1.25.55,4.9,4.9,0,0,1,5-2.82c.72,0,1.13.22,1.3.58A7.53,7.53,0,0,0,147,80.89,5.93,5.93,0,0,0,145,84.2Z"/>
    </g>
    <g>
      <path class="cls-8" d="M165.54,102.3a3.64,3.64,0,0,1,1-1.34,4,4,0,0,1,2.43-.8,4.09,4.09,0,0,1,1.6.19c.22.09.44.2.66.3l.26.13-.09.15a2.32,2.32,0,0,1-.4,0,3.13,3.13,0,0,0-2.25.63,10.58,10.58,0,0,0-1.19.91,4.51,4.51,0,0,0-1.35,2.12.89.89,0,0,1-.22-.13,4.56,4.56,0,0,0-1.29-1,7.25,7.25,0,0,0-2.77-1,3,3,0,0,0-1.26.11,1.69,1.69,0,0,1-.37.09c-.08,0-.22,0-.25-.07a.29.29,0,0,1,.06-.26,2.64,2.64,0,0,1,1.13-.75,4.57,4.57,0,0,1,1.76-.31,3.54,3.54,0,0,1,2.26.78Z"/>
      <path class="cls-8" d="M166.17,95.45a13,13,0,0,0-1.64.06,3.57,3.57,0,0,0-2.27,1.24c-.22.26-.48.48-.71.74s-.4.47-.64.76a1.22,1.22,0,0,1-.27-.18c-.27-.3-.51-.61-.78-.91a4.47,4.47,0,0,0-3.21-1.46,3.24,3.24,0,0,0-.59.06l-.54.09c-.11-.26,0-.39.16-.52a2.23,2.23,0,0,1,1.14-.55,3.88,3.88,0,0,1,2.9.33,10.24,10.24,0,0,1,1.07.82,3.47,3.47,0,0,1,1.37-1.11,3.87,3.87,0,0,1,2.55-.48,2.47,2.47,0,0,1,1.36.84.69.69,0,0,1,.1.18S166.17,95.43,166.17,95.45Z"/>
      <path class="cls-8" d="M173.64,98.16c-.37-.28-.67-.54-1-.75a4.91,4.91,0,0,0-3.53-.85c-.26,0-.52.16-.78.22a3.55,3.55,0,0,1-.44.05,1.16,1.16,0,0,1,.71-.73,5.2,5.2,0,0,1,3.38-.37,5,5,0,0,1,1,.44,3.9,3.9,0,0,1,4-2.25c.57,0,.9.17,1,.46a6,6,0,0,0-2.84,1.13A4.72,4.72,0,0,0,173.64,98.16Z"/>
    </g>
    <g>
      <g>
        <ellipse class="cls-9" cx="190.81" cy="92.99" rx="3.71" ry="7.3" transform="translate(56.46 257.33) rotate(-76.72)"/>
        <g>
          <g>
            <path class="cls-9" d="M191.63,93.21l-.46-.74-6.64,4.11a.43.43,0,0,0-.14.6h0a.43.43,0,0,0,.6.14Z"/>
            <path class="cls-9" d="M188.53,92.48l-.46-.74-6.64,4.11a.43.43,0,0,0-.14.6h0a.43.43,0,0,0,.6.14Z"/>
          </g>
          <g>
            <path class="cls-9" d="M190,92.82l.74-.46L194.81,99a.43.43,0,0,1-.14.6h0a.43.43,0,0,1-.6-.14Z"/>
            <path class="cls-9" d="M193.07,93.55l.74-.46,4.11,6.64a.43.43,0,0,1-.14.6h0a.43.43,0,0,1-.6-.14Z"/>
          </g>
        </g>
        <g>
          <path class="cls-9" d="M183.84,86,182.18,83a.69.69,0,0,0-1-.27h0c-1.26.78-1.2,3.17.14,5.34s3.45,3.29,4.71,2.52,1.2-3.17-.14-5.34a7.74,7.74,0,0,0-.76-1,.28.28,0,0,0-.48.18l-.05,1.48A.42.42,0,0,1,183.84,86Z"/>
          <path class="cls-9" d="M200.16,89.88l2.85-2a.69.69,0,0,1,1,.18v0c.78,1.26-.35,3.37-2.52,4.71s-4.56,1.4-5.34.14.35-3.37,2.52-4.71a7.74,7.74,0,0,1,1.14-.58.28.28,0,0,1,.35.37l-.61,1.35A.42.42,0,0,0,200.16,89.88Z"/>
        </g>
        <g>
          <circle class="cls-10" cx="189.78" cy="89.14" r="0.56" transform="translate(59.42 253.37) rotate(-76.72)"/>
          <circle class="cls-10" cx="193.45" cy="90.01" r="0.56" transform="translate(61.41 257.6) rotate(-76.72)"/>
        </g>
      </g>
      <g>
        <path class="cls-6" d="M186.41,92s-1.64-2.72-6.68-2.84-8.44.16-9.32,3l1.59.44,5.62-1.42,2.78.37,3.55.5,1.41.41Z"/>
        <path class="cls-11" d="M144.09,91.13a14.12,14.12,0,0,1,12.67,3.2s3.86,3.05,10.11-.54S184.68,89,191,95.43c0,0,4.8,4.18,5.2,4.43s1.15,1.23-.35,1.48a1.81,1.81,0,0,1-1.85,2.49s-3.37,2.5-6.56,1.82c0,0-5.85,2.56-11.6,0s-9.76-4.86-11.46-5-3.87-.5-4.54.6-.58,6-7.47,6.87a31.35,31.35,0,0,0,1.42-4c.19-1.08.79-3.94,2.77-4.27,0,0-5.55-1.07-7.4-3.68S144.87,91.09,144.09,91.13Z"/>
        <path class="cls-6" d="M182.93,96.93a8.2,8.2,0,0,0-.28,2.11,4.88,4.88,0,0,0,.11,1,6.35,6.35,0,0,0,.33,1,2.66,2.66,0,0,1-.6-.94,3,3,0,0,1-.21-1.11,3.66,3.66,0,0,1,.16-1.11A3.18,3.18,0,0,1,182.93,96.93Z"/>
        <path class="cls-6" d="M182.38,97.61a10.24,10.24,0,0,1-2.78-.46c-1-.41-5.06-1.74-5.77-.42,0,0-.24.67.62,1.37a4.65,4.65,0,0,1,1.66,3.22c.07,1.29.87,2.17,2.18,1.68a14.84,14.84,0,0,0,4.17-2.82,8.68,8.68,0,0,1,.17-2.53Z"/>
        <path class="cls-6" d="M187.85,93.31a10.44,10.44,0,0,0-1.42,1.17,9.15,9.15,0,0,0-1.21,1.37A5.84,5.84,0,0,0,184,99.16a6.41,6.41,0,0,0,1,3.41c.3.53.69,1,1,1.5s.83.9,1.24,1.37c-.46-.4-.91-.83-1.37-1.25s-.81-.95-1.15-1.47a6.47,6.47,0,0,1-1.09-3.57A6,6,0,0,1,185,95.67,9.19,9.19,0,0,1,187.85,93.31Z"/>
        <path class="cls-6" d="M196.45,100.08a4.85,4.85,0,0,0-.95.21,3.75,3.75,0,0,0-.86.41,3.11,3.11,0,0,0-.73.6,4.59,4.59,0,0,0-.58.78,2.9,2.9,0,0,1,.47-.87,2.86,2.86,0,0,1,.75-.67A3.15,3.15,0,0,1,196.45,100.08Z"/>
        <path class="cls-6" d="M195.56,101.38s-1.67.31-1.92,1.42c0,0,.2-.37.48-.31s1.35.19,1.35-.27S195.32,101.58,195.56,101.38Z"/>
        <g>
          <circle class="cls-6" cx="189.96" cy="98.38" r="1.29" transform="translate(88.45 286.69) rotate(-89.05)"/>
          <circle class="cls-12" cx="190.3" cy="98.19" r="0.72" transform="translate(88.97 286.84) rotate(-89.05)"/>
          <circle class="cls-6" cx="189.99" cy="98.42" r="0.39" transform="translate(88.44 286.76) rotate(-89.05)"/>
        </g>
      </g>
      <rect class="cls-13" x="180.23" y="105.02" width="6.15" height="27.5"/>
      <rect class="cls-13" x="66.69" y="94.98" width="6.14" height="37.27"/>
      <path class="cls-14" d="M187.31,132.13H131.08v4h56.23a2,2,0,1,0,0-4Z"/>
      <path class="cls-14" d="M65.26,132.13a2,2,0,1,0,0,4h55.49v-4Z"/>
      <ellipse class="cls-14" cx="126.29" cy="134.13" rx="3.49" ry="3.41"/>
      <g>
        <path class="cls-6" d="M70.74,79.64s-1.94-2.52-7-2.07-8.37,1.11-8.92,4l1.63.26,5.43-2,2.8.06,3.58.1,1.45.25Z"/>
        <path class="cls-11" d="M28.59,83.54a14.12,14.12,0,0,1,13,1.75s4.18,2.6,10-1.68,17.15-6.79,24.15-1.08c0,0,5.24,3.62,5.66,3.82s1.28,1.09-.18,1.51a1.81,1.81,0,0,1-1.56,2.69s-3.07,2.86-6.32,2.55c0,0-5.53,3.2-11.52,1.28s-10.24-3.73-12-3.71-3.9-.06-4.45,1.11.1,6-6.65,7.67a31.35,31.35,0,0,0,1-4.14c.06-1.1.34-4,2.27-4.55,0,0-5.63-.44-7.77-2.82S29.36,83.42,28.59,83.54Z"/>
        <path class="cls-6" d="M67.84,84.93a8.2,8.2,0,0,0,0,2.12,4.88,4.88,0,0,0,.23,1,6.35,6.35,0,0,0,.44,1,2.66,2.66,0,0,1-.7-.86,3,3,0,0,1-.34-1.08,3.66,3.66,0,0,1,0-1.12A3.18,3.18,0,0,1,67.84,84.93Z"/>
        <path class="cls-6" d="M67.37,85.67a10.24,10.24,0,0,1-2.81-.14c-1.07-.29-5.22-1.16-5.78.24,0,0-.17.7.77,1.29a4.65,4.65,0,0,1,2,3c.21,1.27,1.11,2.06,2.36,1.42a14.84,14.84,0,0,0,3.82-3.27,8.68,8.68,0,0,1-.12-2.53Z"/>
        <path class="cls-6" d="M72.32,80.78A10.44,10.44,0,0,0,71,82.1a9.15,9.15,0,0,0-1,1.49A5.84,5.84,0,0,0,69.16,87a6.41,6.41,0,0,0,1.34,3.28c.36.49.8.91,1.21,1.37s.93.8,1.38,1.22c-.51-.35-1-.72-1.51-1.09s-.91-.85-1.31-1.33a6.47,6.47,0,0,1-1.48-3.43,6,6,0,0,1,1-3.61A9.19,9.19,0,0,1,72.32,80.78Z"/>
        <path class="cls-6" d="M81.63,86.54a4.85,4.85,0,0,0-.92.32,3.75,3.75,0,0,0-.81.5,3.11,3.11,0,0,0-.66.68,4.59,4.59,0,0,0-.48.84,2.9,2.9,0,0,1,.37-.92,2.86,2.86,0,0,1,.67-.75A3.15,3.15,0,0,1,81.63,86.54Z"/>
        <path class="cls-6" d="M80.89,87.93s-1.62.5-1.75,1.63c0,0,.16-.39.44-.36s1.36,0,1.31-.42S80.67,88.16,80.89,87.93Z"/>
        <g>
          <circle class="cls-6" cx="74.99" cy="85.58" r="1.29" transform="translate(-7.89 7.61) rotate(-5.52)"/>
          <circle class="cls-12" cx="75.3" cy="85.35" r="0.72" transform="translate(-7.86 7.64) rotate(-5.52)"/>
          <circle class="cls-6" cx="75.02" cy="85.62" r="0.39" transform="translate(-7.89 7.62) rotate(-5.52)"/>
        </g>
      </g>
      <g>
        <path class="cls-15" d="M93,80.34s-.8-2.63-5-3.78-7.1-1.65-8.44.55l1.24.71h5l2.25.9,2.86,1.17,1.1.64Z"/>
        <path class="cls-16" d="M57.73,70.66A12.19,12.19,0,0,1,67.66,76s2.59,3.37,8.57,1.68,15.92-.27,19.84,6.48c0,0,3.13,4.52,3.41,4.81s.7,1.27-.6,1.17a1.57,1.57,0,0,1-2.08,1.7s-3.35,1.38-5.88.14a13.53,13.53,0,0,1-9.7-2.47c-4.26-3.37-7.14-6.13-8.53-6.64s-3.14-1.24-3.93-.46-1.75,4.89-7.7,4.17a27.07,27.07,0,0,0,2-3.05c.38-.87,1.49-3.13,3.22-3,0,0-4.42-2.07-5.42-4.65S58.38,70.8,57.73,70.66Z"/>
        <path class="cls-15" d="M89,83.72a11.66,11.66,0,0,0-.59,1.72,5.38,5.38,0,0,0-.14.86,8.71,8.71,0,0,0,0,.93,2.3,2.3,0,0,1-.34-1.91A2.71,2.71,0,0,1,89,83.72Z"/>
        <path class="cls-15" d="M88.41,84.18a8.84,8.84,0,0,1-2.23-1c-.77-.56-3.86-2.53-4.74-1.57,0,0-.35.51.23,1.27a4,4,0,0,1,.71,3c-.21,1.09.27,2,1.47,1.87a12.81,12.81,0,0,0,4.08-1.48,7.49,7.49,0,0,1,.67-2.08Z"/>
        <path class="cls-15" d="M93.89,81.74a10.19,10.19,0,0,0-2.69,1.62,5.17,5.17,0,0,0-1.67,2.49,5.71,5.71,0,0,0,.06,3c.13.5.35,1,.53,1.48s.48.94.71,1.43c-.32-.43-.61-.87-.93-1.31A16,16,0,0,1,89.22,89,5.45,5.45,0,0,1,89,85.71,5,5,0,0,1,91,83.06,7.57,7.57,0,0,1,93.89,81.74Z"/>
        <path class="cls-15" d="M99.66,89.22a7.52,7.52,0,0,0-1.6.3,4.29,4.29,0,0,0-.72.29c-.24.11-.46.28-.72.42A2,2,0,0,1,97.92,89,2.13,2.13,0,0,1,99.66,89.22Z"/>
        <path class="cls-15" d="M98.64,90.12s-1.46-.09-1.91.78c0,0,.25-.27.47-.15s1.09.44,1.19.06S98.39,90.24,98.64,90.12Z"/>
        <g>
          <circle class="cls-6" cx="94.59" cy="86.43" r="1.11" transform="translate(-13.52 155.2) rotate(-74.88)"/>
          <circle class="cls-12" cx="94.91" cy="86.34" r="0.62" transform="matrix(0.26, -0.97, 0.97, 0.26, -13.2, 155.44)"/>
          <circle class="cls-6" cx="94.6" cy="86.47" r="0.34" transform="translate(-13.55 155.24) rotate(-74.88)"/>
        </g>
      </g>
      <g>
        <path class="cls-16" d="M48,83.56s1.29-1.42,4.49-1,5.35.91,5.65,2.65l-1.05.1-3.44-1.36-1.8-.05-2.3-.05-.93.1Z"/>
        <path class="cls-15" d="M74.94,87.14a9.78,9.78,0,0,0-8.33.62s-2.72,1.39-6.37-1.29S49.38,82,44.79,85.1c0,0-3.42,2-3.7,2.06s-.84.6.09.89c0,0-.7,1.35,1,1.62a6.52,6.52,0,0,0,4,1.69,11,11,0,0,0,7.36,1.11c3.88-.94,6.63-1.87,7.73-1.8s2.5.09,2.83.79-.17,3.52,4.12,4.7a17.27,17.27,0,0,1-.54-2.45c0-.64-.15-2.36-1.37-2.74,0,0,3.62-.09,5-1.41S74.45,87,74.94,87.14Z"/>
        <path class="cls-16" d="M49.77,86.74a1.57,1.57,0,0,1,.35,1.31,1.38,1.38,0,0,1-.83,1.08c.07-.23.16-.41.21-.6a4.56,4.56,0,0,0,.13-.56C49.7,87.59,49.72,87.2,49.77,86.74Z"/>
        <path class="cls-16" d="M50.05,87.19a7.17,7.17,0,0,0,1.8,0c.69-.14,3.37-.52,3.7.32,0,0,.09.41-.52.73a2.67,2.67,0,0,0-1.34,1.7,1,1,0,0,1-1.54.76,9.57,9.57,0,0,1-2.39-2,4.64,4.64,0,0,0,.12-1.48Z"/>
        <path class="cls-16" d="M47,84.17a5.15,5.15,0,0,1,1.66,1.54A3.3,3.3,0,0,1,49.25,88,3.52,3.52,0,0,1,48.16,90c-.28.26-.6.48-.9.71s-.66.36-1,.52c.28-.25.57-.48.85-.72s.53-.5.76-.78a3.67,3.67,0,0,0,.88-1.85,3.36,3.36,0,0,0-.45-2A8,8,0,0,0,47,84.17Z"/>
        <path class="cls-16" d="M40.9,87.26a1.47,1.47,0,0,1,1.26.28,1.31,1.31,0,0,1,.54,1.18c-.17-.16-.28-.31-.43-.44a5,5,0,0,0-.42-.35C41.58,87.7,41.26,87.52,40.9,87.26Z"/>
        <path class="cls-16" d="M41.35,88.09s1,.34,1.09,1c0,0-.1-.23-.28-.22s-.87,0-.83-.29S41.49,88.24,41.35,88.09Z"/>
        <g>
          <ellipse class="cls-6" cx="45.17" cy="86.9" rx="0.75" ry="0.83" transform="translate(-47.05 119.87) rotate(-82.2)"/>
          <ellipse class="cls-12" cx="44.98" cy="86.76" rx="0.42" ry="0.46" transform="translate(-47.08 119.55) rotate(-82.2)"/>
          <ellipse class="cls-6" cx="45.15" cy="86.92" rx="0.23" ry="0.25" transform="matrix(0.14, -0.99, 0.99, 0.14, -47.09, 119.87)"/>
        </g>
      </g>
      <g>
        <path class="cls-15" d="M209,90.28s-1.36-2.38-5.71-2.58-7.29,0-8.1,2.42l1.37.41,4.88-1.11,2.39.38,3.05.5,1.21.38Z"/>
        <path class="cls-16" d="M172.49,88.7a12.19,12.19,0,0,1,10.88,3s3.27,2.71,8.73-.27,15.46-3.8,20.78,1.9c0,0,4.06,3.7,4.4,3.93s1,1.08-.33,1.27a1.57,1.57,0,0,1-1.65,2.12s-3,2.09-5.7,1.44a13.53,13.53,0,0,1-10-.25c-4.91-2.34-8.32-4.39-9.8-4.57s-3.33-.51-3.93.43-.62,5.16-6.58,5.78a27.07,27.07,0,0,0,1.3-3.43c.18-.93.76-3.39,2.48-3.63,0,0-4.77-1-6.32-3.32S173.16,88.68,172.49,88.7Z"/>
        <path class="cls-15" d="M205.89,94.46a11.67,11.67,0,0,0-.19,1.81,5.39,5.39,0,0,0,.06.87,8.72,8.72,0,0,0,.2.91,2.3,2.3,0,0,1-.75-1.79A2.71,2.71,0,0,1,205.89,94.46Z"/>
        <path class="cls-15" d="M205.41,95A8.84,8.84,0,0,1,203,94.6c-.88-.37-4.33-1.6-5-.47,0,0-.22.58.51,1.19a4,4,0,0,1,1.37,2.81c0,1.11.71,1.89,1.85,1.49a12.81,12.81,0,0,0,3.65-2.35,7.49,7.49,0,0,1,.19-2.18Z"/>
        <path class="cls-15" d="M210.21,91.44a10.19,10.19,0,0,0-2.26,2.18,5.17,5.17,0,0,0-1.08,2.8,5.71,5.71,0,0,0,.73,2.92c.24.46.56.88.84,1.32s.68.81,1,1.23c-.41-.34-.79-.71-1.2-1.08a16,16,0,0,1-1-1.28,5.45,5.45,0,0,1-.9-3.14,5,5,0,0,1,1.28-3A7.57,7.57,0,0,1,210.21,91.44Z"/>
        <path class="cls-15" d="M217.5,97.45a7.52,7.52,0,0,0-1.49.65,4.29,4.29,0,0,0-.63.45c-.21.16-.39.37-.61.57a2,2,0,0,1,1-1.45A2.13,2.13,0,0,1,217.5,97.45Z"/>
        <path class="cls-15" d="M216.71,98.55s-1.45.23-1.68,1.19c0,0,.18-.31.42-.25s1.16.19,1.17-.21S216.49,98.72,216.71,98.55Z"/>
        <g>
          <circle class="cls-6" cx="211.93" cy="95.86" r="1.11" transform="translate(107.83 303.86) rotate(-87.75)"/>
          <circle class="cls-12" cx="212.23" cy="95.7" r="0.62" transform="translate(108.27 304) rotate(-87.75)"/>
          <circle class="cls-6" cx="211.96" cy="95.89" r="0.34" transform="translate(107.82 303.92) rotate(-87.75)"/>
        </g>
      </g>
      <g>
        <path class="cls-16" d="M162.31,96.38s1.29-1.42,4.49-1,5.35.91,5.65,2.65l-1.05.1L168,96.77l-1.8-.05-2.3-.05-.93.1Z"/>
        <path class="cls-15" d="M189.25,100a9.78,9.78,0,0,0-8.33.62s-2.72,1.39-6.37-1.29-10.87-4.51-15.46-1.38c0,0-3.42,2-3.7,2.06s-.84.6.09.89c0,0-.7,1.35,1,1.62a6.52,6.52,0,0,0,4,1.69,11,11,0,0,0,7.36,1.11c3.88-.94,6.63-1.87,7.73-1.8s2.5.09,2.83.79-.17,3.52,4.12,4.7a17.27,17.27,0,0,1-.54-2.45c0-.64-.15-2.36-1.37-2.74,0,0,3.62-.09,5-1.41S188.76,99.87,189.25,100Z"/>
        <path class="cls-16" d="M164.08,99.56a1.57,1.57,0,0,1,.35,1.31,1.38,1.38,0,0,1-.83,1.08c.07-.23.16-.41.21-.6a4.56,4.56,0,0,0,.13-.56C164,100.41,164,100,164.08,99.56Z"/>
        <path class="cls-16" d="M164.36,100a7.17,7.17,0,0,0,1.8,0c.69-.14,3.37-.52,3.7.32,0,0,.09.41-.52.73a2.67,2.67,0,0,0-1.34,1.7,1,1,0,0,1-1.54.76,9.57,9.57,0,0,1-2.39-2,4.64,4.64,0,0,0,.12-1.48Z"/>
        <path class="cls-16" d="M161.28,97a5.15,5.15,0,0,1,1.66,1.54,3.3,3.3,0,0,1,.62,2.25,3.52,3.52,0,0,1-1.09,2.06c-.28.26-.6.48-.9.71s-.66.36-1,.52c.28-.25.57-.48.85-.72s.53-.5.76-.78a3.67,3.67,0,0,0,.88-1.85,3.36,3.36,0,0,0-.45-2A8,8,0,0,0,161.28,97Z"/>
        <path class="cls-16" d="M155.21,100.08a1.47,1.47,0,0,1,1.26.28,1.31,1.31,0,0,1,.54,1.18c-.17-.16-.28-.31-.43-.44a5,5,0,0,0-.42-.35C155.88,100.53,155.57,100.34,155.21,100.08Z"/>
        <path class="cls-16" d="M155.66,100.92s1,.34,1.09,1c0,0-.1-.23-.28-.22s-.87,0-.83-.29S155.79,101.06,155.66,100.92Z"/>
        <g>
          <ellipse class="cls-6" cx="159.48" cy="99.73" rx="0.75" ry="0.83" transform="translate(39.04 244.21) rotate(-82.2)"/>
          <ellipse class="cls-12" cx="159.29" cy="99.58" rx="0.42" ry="0.46" transform="matrix(0.14, -0.99, 0.99, 0.14, 39.02, 243.89)"/>
          <ellipse class="cls-6" cx="159.46" cy="99.75" rx="0.23" ry="0.25" transform="translate(39 244.2) rotate(-82.2)"/>
        </g>
      </g>
      <g>
        <path class="cls-14" d="M42.37,95.6H96.65A3.49,3.49,0,0,0,100,92H39A3.5,3.5,0,0,0,42.37,95.6Z"/>
        <rect class="cls-13" x="36.28" y="89.7" width="66.47" height="2.32"/>
      </g>
      <g>
        <ellipse class="cls-9" cx="171.6" cy="99.33" rx="5.49" ry="2.8" transform="translate(-11.76 23.89) rotate(-7.7)"/>
        <g>
          <g>
            <path class="cls-9" d="M172.24,99.26l-.52-.4-3.56,4.68a.33.33,0,0,0,.06.46h0a.33.33,0,0,0,.46-.06Z"/>
            <path class="cls-9" d="M169.86,99.58l-.52-.4-3.56,4.68a.33.33,0,0,0,.06.46h0a.33.33,0,0,0,.46-.06Z"/>
          </g>
          <g>
            <path class="cls-9" d="M171,99.43l.4-.52,4.68,3.56a.33.33,0,0,1,.06.46h0a.33.33,0,0,1-.46.06Z"/>
            <path class="cls-9" d="M173.34,99.11l.4-.52,4.68,3.56a.33.33,0,0,1,.06.46h0a.33.33,0,0,1-.46.06Z"/>
          </g>
        </g>
        <g>
          <path class="cls-9" d="M164.83,96.31l-2-1.71a.52.52,0,0,0-.74.06h0c-.68.89,0,2.55,1.54,3.71s3.31,1.39,4,.5,0-2.55-1.54-3.71a5.82,5.82,0,0,0-.81-.52.21.21,0,0,0-.29.25l.36,1.05A.31.31,0,0,1,164.83,96.31Z"/>
          <path class="cls-9" d="M177.33,94.62l1.47-2.17a.52.52,0,0,1,.73-.14h0c.89.68.66,2.46-.5,4s-2.82,2.22-3.71,1.54-.66-2.46.5-4a5.82,5.82,0,0,1,.64-.71.21.21,0,0,1,.35.17l-.07,1.11A.31.31,0,0,0,177.33,94.62Z"/>
        </g>
        <g>
          <circle class="cls-10" cx="169.84" cy="96.9" r="0.42" transform="translate(-11.45 23.63) rotate(-7.7)"/>
          <circle class="cls-10" cx="172.65" cy="96.52" r="0.42" transform="matrix(0.99, -0.13, 0.13, 0.99, -11.38, 24.01)"/>
        </g>
      </g>
      <g>
        <g>
          <path class="cls-17" d="M199.44,95.32a5.09,5.09,0,0,0-7.74,1.91l1.1,2.23-1.25,1.62c.32.88,3.38,3.25,4.31,3.33l1.25-1.62,2.43.5a5.09,5.09,0,0,0-.1-8Z"/>
          <path class="cls-18" d="M199.73,95.57l-.29-.24-.31-.22L193.47,103h0Z"/>
          <path class="cls-18" d="M193.47,103h0l7.17-6.41a5,5,0,0,0-.45-.61Z"/>
          <path class="cls-18" d="M193.47,103h0l7.73-5.17a5.09,5.09,0,0,0-.27-.71Z"/>
          <path class="cls-18" d="M193.47,103l7.94-3.9a5.09,5.09,0,0,0-.09-.75L193.47,103Z"/>
          <path class="cls-18" d="M198.57,94.78a5,5,0,0,0-.7-.28L193.47,103h0Z"/>
          <path class="cls-18" d="M197.27,94.35a5.11,5.11,0,0,0-.75-.08L193.47,103h0Z"/>
          <path class="cls-18" d="M196,94.27a5.11,5.11,0,0,0-.75.11L193.47,103h0Z"/>
          <path class="cls-18" d="M194.78,94.5a5.08,5.08,0,0,0-.7.28l-.62,8.27h0Z"/>
          <path class="cls-18" d="M193.58,95.06a5.06,5.06,0,0,0-.59.45l.48,7.54h0Z"/>
        </g>
        <path class="cls-18" d="M193.47,103l7.84-2.68a5.05,5.05,0,0,0,.09-.74L193.47,103Z"/>
        <path class="cls-18" d="M193.47,103l7.42-1.43a5.06,5.06,0,0,0,.28-.69l-7.7,2.12Z"/>
      </g>
      <g>
        <g>
          <path class="cls-19" d="M179.93,97.6a3.64,3.64,0,0,0-4.52,3.46l1.35,1.14-.36,1.42a7.19,7.19,0,0,0,3.77,1l.36-1.42,1.73-.37a3.64,3.64,0,0,0-2.34-5.19Z"/>
          <path class="cls-20" d="M180.19,97.67l-.26-.08-.27-.06-1.44,6.81h0Z"/>
          <path class="cls-20" d="M178.23,104.35h0l2.86-6.24a3.6,3.6,0,0,0-.47-.27Z"/>
          <path class="cls-20" d="M178.23,104.35h0l3.58-5.59a3.63,3.63,0,0,0-.38-.39Z"/>
          <path class="cls-20" d="M178.23,104.35l4.08-4.82a3.63,3.63,0,0,0-.27-.47l-3.81,5.28Z"/>
          <path class="cls-20" d="M179.21,97.49a3.6,3.6,0,0,0-.54,0l-.44,6.85h0Z"/>
          <path class="cls-20" d="M178.24,97.58a3.64,3.64,0,0,0-.52.16l.51,6.62h0Z"/>
          <path class="cls-20" d="M177.38,97.89a3.65,3.65,0,0,0-.46.28l1.31,6.18h0Z"/>
          <path class="cls-20" d="M176.65,98.39a3.63,3.63,0,0,0-.38.38l2,5.59h0Z"/>
          <path class="cls-20" d="M176,99.1a3.61,3.61,0,0,0-.26.46l2.46,4.8h0Z"/>
        </g>
        <path class="cls-20" d="M178.23,104.35l4.37-4a3.61,3.61,0,0,0-.15-.51l-4.22,4.51Z"/>
        <path class="cls-20" d="M178.23,104.35l4.44-3.05a3.61,3.61,0,0,0,0-.53l-4.43,3.58Z"/>
      </g>
      <g>
        <path class="cls-14" d="M155.92,106.84H210.2a3.49,3.49,0,0,0,3.4-3.58H152.52A3.5,3.5,0,0,0,155.92,106.84Z"/>
        <rect class="cls-13" x="149.83" y="100.94" width="66.47" height="2.32"/>
      </g>
      <g>
        <path class="cls-13" d="M66.12,179v12.24h8.26A6.4,6.4,0,0,1,80.85,185h91.39V185a6.37,6.37,0,0,1,6,6.28h8.26V179Z"/>
        <path class="cls-21" d="M177.93,147.06H134.59V133.12a6.07,6.07,0,0,0-6.14-6h-4.33a6.07,6.07,0,0,0-6.14,6v13.94H74.64a8.43,8.43,0,0,0-8.52,8.33V179H186.46V155.4A8.43,8.43,0,0,0,177.93,147.06Z"/>
        <path class="cls-22" d="M138.66,163a4.79,4.79,0,0,1-4.84,4.74H118.75a4.79,4.79,0,0,1-4.84-4.74h0a4.79,4.79,0,0,1,4.84-4.74h15.07a4.79,4.79,0,0,1,4.84,4.74Z"/>
      </g>
    </g>
  </g>
</svg>
